%YAML 1.1
%TAG !u! tag:unity3d.com,2011:
--- !u!29 &1
OcclusionCullingSettings:
  m_ObjectHideFlags: 0
  serializedVersion: 2
  m_OcclusionBakeSettings:
    smallestOccluder: 5
    smallestHole: 0.25
    backfaceThreshold: 100
  m_SceneGUID: 00000000000000000000000000000000
  m_OcclusionCullingData: {fileID: 0}
--- !u!104 &2
RenderSettings:
  m_ObjectHideFlags: 0
  serializedVersion: 9
  m_Fog: 0
  m_FogColor: {r: 0.5, g: 0.5, b: 0.5, a: 1}
  m_FogMode: 3
  m_FogDensity: 0.01
  m_LinearFogStart: 0
  m_LinearFogEnd: 300
  m_AmbientSkyColor: {r: 0.212, g: 0.227, b: 0.259, a: 1}
  m_AmbientEquatorColor: {r: 0.114, g: 0.125, b: 0.133, a: 1}
  m_AmbientGroundColor: {r: 0.047, g: 0.043, b: 0.035, a: 1}
  m_AmbientIntensity: 1
  m_AmbientMode: 0
  m_SubtractiveShadowColor: {r: 0.42, g: 0.478, b: 0.627, a: 1}
  m_SkyboxMaterial: {fileID: 10304, guid: 0000000000000000f000000000000000, type: 0}
  m_HaloStrength: 0.5
  m_FlareStrength: 1
  m_FlareFadeSpeed: 3
  m_HaloTexture: {fileID: 0}
  m_SpotCookie: {fileID: 10001, guid: 0000000000000000e000000000000000, type: 0}
  m_DefaultReflectionMode: 0
  m_DefaultReflectionResolution: 128
  m_ReflectionBounces: 1
  m_ReflectionIntensity: 1
  m_CustomReflection: {fileID: 0}
  m_Sun: {fileID: 0}
  m_IndirectSpecularColor: {r: 0, g: 0, b: 0, a: 1}
  m_UseRadianceAmbientProbe: 0
--- !u!157 &3
LightmapSettings:
  m_ObjectHideFlags: 0
  serializedVersion: 11
  m_GIWorkflowMode: 0
  m_GISettings:
    serializedVersion: 2
    m_BounceScale: 1
    m_IndirectOutputScale: 1
    m_AlbedoBoost: 1
    m_TemporalCoherenceThreshold: 1
    m_EnvironmentLightingMode: 0
    m_EnableBakedLightmaps: 1
    m_EnableRealtimeLightmaps: 1
  m_LightmapEditorSettings:
    serializedVersion: 10
    m_Resolution: 2
    m_BakeResolution: 40
    m_AtlasSize: 1024
    m_AO: 0
    m_AOMaxDistance: 1
    m_CompAOExponent: 0
    m_CompAOExponentDirect: 0
    m_Padding: 2
    m_LightmapParameters: {fileID: 0}
    m_LightmapsBakeMode: 1
    m_TextureCompression: 1
    m_FinalGather: 0
    m_FinalGatherFiltering: 1
    m_FinalGatherRayCount: 1024
    m_ReflectionCompression: 2
    m_MixedBakeMode: 1
    m_BakeBackend: 0
    m_PVRSampling: 1
    m_PVRDirectSampleCount: 32
    m_PVRSampleCount: 500
    m_PVRBounces: 2
    m_PVRFilterTypeDirect: 0
    m_PVRFilterTypeIndirect: 0
    m_PVRFilterTypeAO: 0
    m_PVRFilteringMode: 1
    m_PVRCulling: 1
    m_PVRFilteringGaussRadiusDirect: 1
    m_PVRFilteringGaussRadiusIndirect: 5
    m_PVRFilteringGaussRadiusAO: 2
    m_PVRFilteringAtrousPositionSigmaDirect: 0.5
    m_PVRFilteringAtrousPositionSigmaIndirect: 2
    m_PVRFilteringAtrousPositionSigmaAO: 1
    m_ShowResolutionOverlay: 1
  m_LightingDataAsset: {fileID: 0}
  m_UseShadowmask: 0
--- !u!196 &4
NavMeshSettings:
  serializedVersion: 2
  m_ObjectHideFlags: 0
  m_BuildSettings:
    serializedVersion: 2
    agentTypeID: 0
    agentRadius: 0.5
    agentHeight: 2
    agentSlope: 45
    agentClimb: 0.4
    ledgeDropHeight: 0
    maxJumpAcrossDistance: 0
    minRegionArea: 2
    manualCellSize: 0
    cellSize: 0.16666667
    manualTileSize: 0
    tileSize: 256
    accuratePlacement: 0
    debug:
      m_Flags: 0
  m_NavMeshData: {fileID: 0}
--- !u!1 &46576050
GameObject:
  m_ObjectHideFlags: 0
  m_PrefabParentObject: {fileID: 0}
  m_PrefabInternal: {fileID: 0}
  serializedVersion: 5
  m_Component:
  - component: {fileID: 46576055}
  - component: {fileID: 46576054}
  m_Layer: 0
  m_Name: Main Camera
  m_TagString: MainCamera
  m_Icon: {fileID: 0}
  m_NavMeshLayer: 0
  m_StaticEditorFlags: 0
  m_IsActive: 1
--- !u!20 &46576054
Camera:
  m_ObjectHideFlags: 0
  m_PrefabParentObject: {fileID: 0}
  m_PrefabInternal: {fileID: 0}
  m_GameObject: {fileID: 46576050}
  m_Enabled: 1
  serializedVersion: 2
  m_ClearFlags: 2
  m_BackGroundColor: {r: 0, g: 0, b: 0, a: 0}
  m_NormalizedViewPortRect:
    serializedVersion: 2
    x: 0
    y: 0
    width: 1
    height: 1
  near clip plane: 0.37037
  far clip plane: 10
  field of view: 60
  orthographic: 0
  orthographic size: 5
  m_Depth: -1
  m_CullingMask:
    serializedVersion: 2
    m_Bits: 4294967295
  m_RenderingPath: -1
  m_TargetTexture: {fileID: 0}
  m_TargetDisplay: 0
  m_TargetEye: 3
  m_HDR: 0
  m_AllowMSAA: 1
  m_AllowDynamicResolution: 0
  m_ForceIntoRT: 0
  m_OcclusionCulling: 1
  m_StereoConvergence: 10
  m_StereoConvergencePoint: {fileID: 0}
  m_StereoSeparation: 0.062
  m_StabilizationDistance: 0
  m_StabilizationMode: 0
--- !u!4 &46576055
Transform:
  m_ObjectHideFlags: 0
  m_PrefabParentObject: {fileID: 0}
  m_PrefabInternal: {fileID: 0}
  m_GameObject: {fileID: 46576050}
  m_LocalRotation: {x: 0, y: 0, z: 0, w: 1}
  m_LocalPosition: {x: 0, y: 0, z: 0}
  m_LocalScale: {x: 1, y: 1, z: 1}
  m_Children: []
  m_Father: {fileID: 1731829235}
  m_RootOrder: 2
  m_LocalEulerAnglesHint: {x: 0, y: 0, z: 0}
--- !u!1 &50067921
GameObject:
  m_ObjectHideFlags: 0
  m_PrefabParentObject: {fileID: 1379414498878968, guid: 6884f69ad0adbb441905ff499f5d1ece,
    type: 2}
  m_PrefabInternal: {fileID: 671722722}
  serializedVersion: 5
  m_Component:
  - component: {fileID: 50067922}
  - component: {fileID: 50067924}
  - component: {fileID: 50067923}
  m_Layer: 0
  m_Name: X_Sphere3
  m_TagString: Untagged
  m_Icon: {fileID: 0}
  m_NavMeshLayer: 0
  m_StaticEditorFlags: 0
  m_IsActive: 1
--- !u!4 &50067922
Transform:
  m_ObjectHideFlags: 0
  m_PrefabParentObject: {fileID: 4070196780454600, guid: 6884f69ad0adbb441905ff499f5d1ece,
    type: 2}
  m_PrefabInternal: {fileID: 671722722}
  m_GameObject: {fileID: 50067921}
  m_LocalRotation: {x: 0, y: -0, z: -0, w: 1}
  m_LocalPosition: {x: -0.1505, y: 0, z: 0}
  m_LocalScale: {x: 0.15, y: 0.15, z: 0.15}
  m_Children: []
  m_Father: {fileID: 1982003599}
  m_RootOrder: 2
  m_LocalEulerAnglesHint: {x: 0, y: 0, z: 0}
--- !u!23 &50067923
MeshRenderer:
  m_ObjectHideFlags: 0
  m_PrefabParentObject: {fileID: 23974323287803162, guid: 6884f69ad0adbb441905ff499f5d1ece,
    type: 2}
  m_PrefabInternal: {fileID: 671722722}
  m_GameObject: {fileID: 50067921}
  m_Enabled: 1
  m_CastShadows: 1
  m_ReceiveShadows: 1
  m_DynamicOccludee: 1
  m_MotionVectors: 1
  m_LightProbeUsage: 1
  m_ReflectionProbeUsage: 1
  m_RenderingLayerMask: 4294967295
  m_Materials:
  - {fileID: 2100000, guid: 5808511577e4da7488e7fc2fcfb7d238, type: 2}
  m_StaticBatchInfo:
    firstSubMesh: 0
    subMeshCount: 0
  m_StaticBatchRoot: {fileID: 0}
  m_ProbeAnchor: {fileID: 0}
  m_LightProbeVolumeOverride: {fileID: 0}
  m_ScaleInLightmap: 1
  m_PreserveUVs: 0
  m_IgnoreNormalsForChartDetection: 0
  m_ImportantGI: 0
  m_StitchLightmapSeams: 0
  m_SelectedEditorRenderState: 3
  m_MinimumChartSize: 4
  m_AutoUVMaxDistance: 0.5
  m_AutoUVMaxAngle: 89
  m_LightmapParameters: {fileID: 0}
  m_SortingLayerID: 0
  m_SortingLayer: 0
  m_SortingOrder: 0
--- !u!33 &50067924
MeshFilter:
  m_ObjectHideFlags: 0
  m_PrefabParentObject: {fileID: 33975995748667156, guid: 6884f69ad0adbb441905ff499f5d1ece,
    type: 2}
  m_PrefabInternal: {fileID: 671722722}
  m_GameObject: {fileID: 50067921}
  m_Mesh: {fileID: 4300026, guid: 19e8f0334d30adc46be9a93a73b14e80, type: 3}
--- !u!1 &100327523
GameObject:
  m_ObjectHideFlags: 0
  m_PrefabParentObject: {fileID: 1463616170062846, guid: 6884f69ad0adbb441905ff499f5d1ece,
    type: 2}
  m_PrefabInternal: {fileID: 671722722}
  serializedVersion: 5
  m_Component:
  - component: {fileID: 671722723}
  - component: {fileID: 671722724}
  - component: {fileID: 100327525}
  - component: {fileID: 100327524}
  m_Layer: 0
  m_Name: Controller
  m_TagString: Untagged
  m_Icon: {fileID: 0}
  m_NavMeshLayer: 0
  m_StaticEditorFlags: 0
  m_IsActive: 1
--- !u!114 &100327524
MonoBehaviour:
  m_ObjectHideFlags: 0
  m_PrefabParentObject: {fileID: 114537919967921596, guid: 6884f69ad0adbb441905ff499f5d1ece,
    type: 2}
  m_PrefabInternal: {fileID: 671722722}
  m_GameObject: {fileID: 100327523}
  m_Enabled: 1
  m_EditorHideFlags: 0
  m_Script: {fileID: 11500000, guid: a51a8e1b9e893f04d952ef91c4aeb428, type: 3}
  m_Name: 
  m_EditorClassIdentifier: 
--- !u!114 &100327525
MonoBehaviour:
  m_ObjectHideFlags: 0
  m_PrefabParentObject: {fileID: 114209486416625524, guid: 6884f69ad0adbb441905ff499f5d1ece,
    type: 2}
  m_PrefabInternal: {fileID: 671722722}
  m_GameObject: {fileID: 100327523}
  m_Enabled: 1
  m_EditorHideFlags: 0
  m_Script: {fileID: 11500000, guid: 7c86d019ada0de748826eaeb376cb882, type: 3}
  m_Name: 
  m_EditorClassIdentifier: 
  _controllerModel: {fileID: 100327523}
  _trigger: {fileID: 1806614022}
  _touchpad: {fileID: 266160901}
  _homeButton: {fileID: 1640786819}
  _bumperButton: {fileID: 989537771}
  _touchIndicatorTransform: {fileID: 500120348}
--- !u!1 &144251621
GameObject:
  m_ObjectHideFlags: 0
  m_PrefabParentObject: {fileID: 1937605022521272, guid: 6884f69ad0adbb441905ff499f5d1ece,
    type: 2}
  m_PrefabInternal: {fileID: 671722722}
  serializedVersion: 5
  m_Component:
  - component: {fileID: 144251622}
  - component: {fileID: 144251624}
  - component: {fileID: 144251623}
  m_Layer: 0
  m_Name: Z_Sphere5
  m_TagString: Untagged
  m_Icon: {fileID: 0}
  m_NavMeshLayer: 0
  m_StaticEditorFlags: 0
  m_IsActive: 1
--- !u!4 &144251622
Transform:
  m_ObjectHideFlags: 0
  m_PrefabParentObject: {fileID: 4789591958609450, guid: 6884f69ad0adbb441905ff499f5d1ece,
    type: 2}
  m_PrefabInternal: {fileID: 671722722}
  m_GameObject: {fileID: 144251621}
  m_LocalRotation: {x: -0, y: -0, z: -0, w: 1}
  m_LocalPosition: {x: 0, y: 0, z: 0.19999999}
  m_LocalScale: {x: 0.60089886, y: 0.60089886, z: 0.60089886}
  m_Children: []
  m_Father: {fileID: 1982003599}
  m_RootOrder: 14
  m_LocalEulerAnglesHint: {x: 0, y: 0, z: 0}
--- !u!23 &144251623
MeshRenderer:
  m_ObjectHideFlags: 0
  m_PrefabParentObject: {fileID: 23217037758193422, guid: 6884f69ad0adbb441905ff499f5d1ece,
    type: 2}
  m_PrefabInternal: {fileID: 671722722}
  m_GameObject: {fileID: 144251621}
  m_Enabled: 1
  m_CastShadows: 1
  m_ReceiveShadows: 1
  m_DynamicOccludee: 1
  m_MotionVectors: 1
  m_LightProbeUsage: 1
  m_ReflectionProbeUsage: 1
  m_RenderingLayerMask: 4294967295
  m_Materials:
  - {fileID: 2100000, guid: dce284ccd24f4ae4ab1bd9256da4a4bd, type: 2}
  m_StaticBatchInfo:
    firstSubMesh: 0
    subMeshCount: 0
  m_StaticBatchRoot: {fileID: 0}
  m_ProbeAnchor: {fileID: 0}
  m_LightProbeVolumeOverride: {fileID: 0}
  m_ScaleInLightmap: 1
  m_PreserveUVs: 0
  m_IgnoreNormalsForChartDetection: 0
  m_ImportantGI: 0
  m_StitchLightmapSeams: 0
  m_SelectedEditorRenderState: 3
  m_MinimumChartSize: 4
  m_AutoUVMaxDistance: 0.5
  m_AutoUVMaxAngle: 89
  m_LightmapParameters: {fileID: 0}
  m_SortingLayerID: 0
  m_SortingLayer: 0
  m_SortingOrder: 0
--- !u!33 &144251624
MeshFilter:
  m_ObjectHideFlags: 0
  m_PrefabParentObject: {fileID: 33392753657561962, guid: 6884f69ad0adbb441905ff499f5d1ece,
    type: 2}
  m_PrefabInternal: {fileID: 671722722}
  m_GameObject: {fileID: 144251621}
  m_Mesh: {fileID: 4300034, guid: 19e8f0334d30adc46be9a93a73b14e80, type: 3}
--- !u!1 &176941062
GameObject:
  m_ObjectHideFlags: 0
  m_PrefabParentObject: {fileID: 1665571882680860, guid: 6884f69ad0adbb441905ff499f5d1ece,
    type: 2}
  m_PrefabInternal: {fileID: 671722722}
  serializedVersion: 5
  m_Component:
  - component: {fileID: 176941063}
  - component: {fileID: 176941065}
  - component: {fileID: 176941064}
  m_Layer: 0
  m_Name: Z_Sphere4
  m_TagString: Untagged
  m_Icon: {fileID: 0}
  m_NavMeshLayer: 0
  m_StaticEditorFlags: 0
  m_IsActive: 1
--- !u!4 &176941063
Transform:
  m_ObjectHideFlags: 0
  m_PrefabParentObject: {fileID: 4696879338534400, guid: 6884f69ad0adbb441905ff499f5d1ece,
    type: 2}
  m_PrefabInternal: {fileID: 671722722}
  m_GameObject: {fileID: 176941062}
  m_LocalRotation: {x: 0, y: -0, z: -0, w: 1}
  m_LocalPosition: {x: -0, y: 0, z: 0.1766}
  m_LocalScale: {x: 0.13, y: 0.13, z: 0.13}
  m_Children: []
  m_Father: {fileID: 1982003599}
  m_RootOrder: 13
  m_LocalEulerAnglesHint: {x: 0, y: 0, z: 0}
--- !u!23 &176941064
MeshRenderer:
  m_ObjectHideFlags: 0
  m_PrefabParentObject: {fileID: 23250596875757388, guid: 6884f69ad0adbb441905ff499f5d1ece,
    type: 2}
  m_PrefabInternal: {fileID: 671722722}
  m_GameObject: {fileID: 176941062}
  m_Enabled: 1
  m_CastShadows: 1
  m_ReceiveShadows: 1
  m_DynamicOccludee: 1
  m_MotionVectors: 1
  m_LightProbeUsage: 1
  m_ReflectionProbeUsage: 1
  m_RenderingLayerMask: 4294967295
  m_Materials:
  - {fileID: 2100000, guid: dce284ccd24f4ae4ab1bd9256da4a4bd, type: 2}
  m_StaticBatchInfo:
    firstSubMesh: 0
    subMeshCount: 0
  m_StaticBatchRoot: {fileID: 0}
  m_ProbeAnchor: {fileID: 0}
  m_LightProbeVolumeOverride: {fileID: 0}
  m_ScaleInLightmap: 1
  m_PreserveUVs: 0
  m_IgnoreNormalsForChartDetection: 0
  m_ImportantGI: 0
  m_StitchLightmapSeams: 0
  m_SelectedEditorRenderState: 3
  m_MinimumChartSize: 4
  m_AutoUVMaxDistance: 0.5
  m_AutoUVMaxAngle: 89
  m_LightmapParameters: {fileID: 0}
  m_SortingLayerID: 0
  m_SortingLayer: 0
  m_SortingOrder: 0
--- !u!33 &176941065
MeshFilter:
  m_ObjectHideFlags: 0
  m_PrefabParentObject: {fileID: 33304203042759642, guid: 6884f69ad0adbb441905ff499f5d1ece,
    type: 2}
  m_PrefabInternal: {fileID: 671722722}
  m_GameObject: {fileID: 176941062}
  m_Mesh: {fileID: 4300012, guid: 19e8f0334d30adc46be9a93a73b14e80, type: 3}
--- !u!1 &234904008
GameObject:
  m_ObjectHideFlags: 0
  m_PrefabParentObject: {fileID: 0}
  m_PrefabInternal: {fileID: 0}
  serializedVersion: 5
  m_Component:
  - component: {fileID: 234904009}
  m_Layer: 0
  m_Name: '[CONTENT]'
  m_TagString: Untagged
  m_Icon: {fileID: 0}
  m_NavMeshLayer: 0
  m_StaticEditorFlags: 0
  m_IsActive: 1
--- !u!4 &234904009
Transform:
  m_ObjectHideFlags: 0
  m_PrefabParentObject: {fileID: 0}
  m_PrefabInternal: {fileID: 0}
  m_GameObject: {fileID: 234904008}
  m_LocalRotation: {x: -0, y: -0, z: -0, w: 1}
  m_LocalPosition: {x: 0, y: 0, z: 0}
  m_LocalScale: {x: 1, y: 1, z: 1}
  m_Children:
  - {fileID: 1889385889}
  - {fileID: 671722723}
  m_Father: {fileID: 0}
  m_RootOrder: 0
  m_LocalEulerAnglesHint: {x: 0, y: 0, z: 0}
--- !u!1 &266160901
GameObject:
  m_ObjectHideFlags: 0
  m_PrefabParentObject: {fileID: 1766317395184334, guid: 6884f69ad0adbb441905ff499f5d1ece,
    type: 2}
  m_PrefabInternal: {fileID: 671722722}
  serializedVersion: 5
  m_Component:
  - component: {fileID: 266160902}
  - component: {fileID: 266160904}
  - component: {fileID: 266160903}
  m_Layer: 0
  m_Name: Controller_Pad
  m_TagString: Untagged
  m_Icon: {fileID: 0}
  m_NavMeshLayer: 0
  m_StaticEditorFlags: 0
  m_IsActive: 1
--- !u!4 &266160902
Transform:
  m_ObjectHideFlags: 0
  m_PrefabParentObject: {fileID: 4950225860473838, guid: 6884f69ad0adbb441905ff499f5d1ece,
    type: 2}
  m_PrefabInternal: {fileID: 671722722}
  m_GameObject: {fileID: 266160901}
  m_LocalRotation: {x: 0, y: -0, z: -0, w: 1}
  m_LocalPosition: {x: -0.0000016743286, y: 0.00025960352, z: -0.00010344029}
  m_LocalScale: {x: 1, y: 1, z: 1}
  m_Children:
  - {fileID: 1340351357}
  m_Father: {fileID: 1514157459}
  m_RootOrder: 3
  m_LocalEulerAnglesHint: {x: 0, y: 0, z: 0}
--- !u!23 &266160903
MeshRenderer:
  m_ObjectHideFlags: 0
  m_PrefabParentObject: {fileID: 23793335205206390, guid: 6884f69ad0adbb441905ff499f5d1ece,
    type: 2}
  m_PrefabInternal: {fileID: 671722722}
  m_GameObject: {fileID: 266160901}
  m_Enabled: 1
  m_CastShadows: 1
  m_ReceiveShadows: 1
  m_DynamicOccludee: 1
  m_MotionVectors: 1
  m_LightProbeUsage: 1
  m_ReflectionProbeUsage: 1
  m_RenderingLayerMask: 4294967295
  m_Materials:
  - {fileID: 2100000, guid: b605e4607075f3b4c8addeb0540d2910, type: 2}
  m_StaticBatchInfo:
    firstSubMesh: 0
    subMeshCount: 0
  m_StaticBatchRoot: {fileID: 0}
  m_ProbeAnchor: {fileID: 0}
  m_LightProbeVolumeOverride: {fileID: 0}
  m_ScaleInLightmap: 1
  m_PreserveUVs: 0
  m_IgnoreNormalsForChartDetection: 0
  m_ImportantGI: 0
  m_StitchLightmapSeams: 0
  m_SelectedEditorRenderState: 3
  m_MinimumChartSize: 4
  m_AutoUVMaxDistance: 0.5
  m_AutoUVMaxAngle: 89
  m_LightmapParameters: {fileID: 0}
  m_SortingLayerID: 0
  m_SortingLayer: 0
  m_SortingOrder: 0
--- !u!33 &266160904
MeshFilter:
  m_ObjectHideFlags: 0
  m_PrefabParentObject: {fileID: 33111582173494408, guid: 6884f69ad0adbb441905ff499f5d1ece,
    type: 2}
  m_PrefabInternal: {fileID: 671722722}
  m_GameObject: {fileID: 266160901}
  m_Mesh: {fileID: 4300000, guid: 5b285b3c693725c4995ec9b2a3eb1496, type: 3}
--- !u!1 &351459059
GameObject:
  m_ObjectHideFlags: 0
  m_PrefabParentObject: {fileID: 0}
  m_PrefabInternal: {fileID: 0}
  serializedVersion: 5
  m_Component:
  - component: {fileID: 351459060}
  - component: {fileID: 351459062}
  - component: {fileID: 351459061}
  m_Layer: 5
  m_Name: 'Text: Instructions'
  m_TagString: Untagged
  m_Icon: {fileID: 0}
  m_NavMeshLayer: 0
  m_StaticEditorFlags: 0
  m_IsActive: 1
--- !u!224 &351459060
RectTransform:
  m_ObjectHideFlags: 0
  m_PrefabParentObject: {fileID: 0}
  m_PrefabInternal: {fileID: 0}
  m_GameObject: {fileID: 351459059}
  m_LocalRotation: {x: -0, y: -0, z: -0, w: 1}
  m_LocalPosition: {x: 0, y: 0, z: 0}
  m_LocalScale: {x: 0.0015, y: 0.0015, z: 0}
  m_Children: []
  m_Father: {fileID: 1468009404}
  m_RootOrder: 1
  m_LocalEulerAnglesHint: {x: 0, y: 0, z: 0}
  m_AnchorMin: {x: 0.5, y: 0.5}
  m_AnchorMax: {x: 0.5, y: 0.5}
  m_AnchoredPosition: {x: 0.0000033677, y: -0.21003}
  m_SizeDelta: {x: 666.66, y: 53.292}
  m_Pivot: {x: 0.5, y: 0.5}
--- !u!114 &351459061
MonoBehaviour:
  m_ObjectHideFlags: 0
  m_PrefabParentObject: {fileID: 0}
  m_PrefabInternal: {fileID: 0}
  m_GameObject: {fileID: 351459059}
  m_Enabled: 1
  m_EditorHideFlags: 0
  m_Script: {fileID: 708705254, guid: f70555f144d8491a825f0804e09c671c, type: 3}
  m_Name: 
  m_EditorClassIdentifier: 
  m_Material: {fileID: 0}
  m_Color: {r: 1, g: 1, b: 1, a: 1}
  m_RaycastTarget: 1
  m_OnCullStateChanged:
    m_PersistentCalls:
      m_Calls: []
    m_TypeName: UnityEngine.UI.MaskableGraphic+CullStateChangedEvent, UnityEngine.UI,
      Version=1.0.0.0, Culture=neutral, PublicKeyToken=null
  m_FontData:
    m_Font: {fileID: 12800000, guid: adcae46baa3736748a69f9f489676bd7, type: 3}
    m_FontSize: 14
    m_FontStyle: 0
    m_BestFit: 0
    m_MinSize: 1
    m_MaxSize: 40
    m_Alignment: 1
    m_AlignByGeometry: 0
    m_RichText: 1
    m_HorizontalOverflow: 0
    m_VerticalOverflow: 0
    m_LineSpacing: 1
  m_Text: Press the bumper to capture an image
--- !u!222 &351459062
CanvasRenderer:
  m_ObjectHideFlags: 0
  m_PrefabParentObject: {fileID: 0}
  m_PrefabInternal: {fileID: 0}
  m_GameObject: {fileID: 351459059}
--- !u!1 &412655402
GameObject:
  m_ObjectHideFlags: 0
  m_PrefabParentObject: {fileID: 1584783810781172, guid: dcbf1437f0912414da095cb522586e5c,
    type: 2}
  m_PrefabInternal: {fileID: 0}
  serializedVersion: 5
  m_Component:
  - component: {fileID: 1468009404}
  - component: {fileID: 412655407}
  - component: {fileID: 412655406}
  - component: {fileID: 412655405}
  - component: {fileID: 412655404}
  - component: {fileID: 412655403}
  m_Layer: 5
  m_Name: HeadposeCanvas
  m_TagString: Untagged
  m_Icon: {fileID: 0}
  m_NavMeshLayer: 0
  m_StaticEditorFlags: 0
  m_IsActive: 1
--- !u!222 &412655403
CanvasRenderer:
  m_ObjectHideFlags: 0
  m_PrefabParentObject: {fileID: 222522199112088104, guid: dcbf1437f0912414da095cb522586e5c,
    type: 2}
  m_PrefabInternal: {fileID: 0}
  m_GameObject: {fileID: 412655402}
--- !u!114 &412655404
MonoBehaviour:
  m_ObjectHideFlags: 0
  m_PrefabParentObject: {fileID: 114228876250568364, guid: dcbf1437f0912414da095cb522586e5c,
    type: 2}
  m_PrefabInternal: {fileID: 0}
  m_GameObject: {fileID: 412655402}
  m_Enabled: 1
  m_EditorHideFlags: 0
  m_Script: {fileID: 11500000, guid: 9a955ee40b78a2c489d4859b55f1f5e3, type: 3}
  m_Name: 
  m_EditorClassIdentifier: 
  CanvasDistance: 1.5
  PositionLerpSpeed: 1
  RotationLerpSpeed: 1
--- !u!114 &412655405
MonoBehaviour:
  m_ObjectHideFlags: 0
  m_PrefabParentObject: {fileID: 114801980052307648, guid: dcbf1437f0912414da095cb522586e5c,
    type: 2}
  m_PrefabInternal: {fileID: 0}
  m_GameObject: {fileID: 412655402}
  m_Enabled: 1
  m_EditorHideFlags: 0
  m_Script: {fileID: 1301386320, guid: f5f67c52d1564df4a8936ccd202a3bd8, type: 3}
  m_Name: 
  m_EditorClassIdentifier: 
  m_IgnoreReversedGraphics: 1
  m_BlockingObjects: 0
  m_BlockingMask:
    serializedVersion: 2
    m_Bits: 4294967295
--- !u!114 &412655406
MonoBehaviour:
  m_ObjectHideFlags: 0
  m_PrefabParentObject: {fileID: 114919713958074922, guid: dcbf1437f0912414da095cb522586e5c,
    type: 2}
  m_PrefabInternal: {fileID: 0}
  m_GameObject: {fileID: 412655402}
  m_Enabled: 1
  m_EditorHideFlags: 0
  m_Script: {fileID: 1980459831, guid: f5f67c52d1564df4a8936ccd202a3bd8, type: 3}
  m_Name: 
  m_EditorClassIdentifier: 
  m_UiScaleMode: 0
  m_ReferencePixelsPerUnit: 100
  m_ScaleFactor: 1
  m_ReferenceResolution: {x: 800, y: 600}
  m_ScreenMatchMode: 0
  m_MatchWidthOrHeight: 0
  m_PhysicalUnit: 3
  m_FallbackScreenDPI: 96
  m_DefaultSpriteDPI: 96
  m_DynamicPixelsPerUnit: 2
--- !u!223 &412655407
Canvas:
  m_ObjectHideFlags: 0
  m_PrefabParentObject: {fileID: 223623966958214270, guid: dcbf1437f0912414da095cb522586e5c,
    type: 2}
  m_PrefabInternal: {fileID: 0}
  m_GameObject: {fileID: 412655402}
  m_Enabled: 1
  serializedVersion: 3
  m_RenderMode: 2
  m_Camera: {fileID: 46576054}
  m_PlaneDistance: 100
  m_PixelPerfect: 0
  m_ReceivesEvents: 1
  m_OverrideSorting: 0
  m_OverridePixelPerfect: 0
  m_SortingBucketNormalizedSize: 0
  m_AdditionalShaderChannelsFlag: 0
  m_SortingLayerID: 0
  m_SortingOrder: 0
  m_TargetDisplay: 0
--- !u!1 &500120347
GameObject:
  m_ObjectHideFlags: 0
  m_PrefabParentObject: {fileID: 1224245587688718, guid: 6884f69ad0adbb441905ff499f5d1ece,
    type: 2}
  m_PrefabInternal: {fileID: 671722722}
  serializedVersion: 5
  m_Component:
  - component: {fileID: 500120348}
  - component: {fileID: 500120350}
  - component: {fileID: 500120349}
  m_Layer: 0
  m_Name: Touchpad_arrow
  m_TagString: Untagged
  m_Icon: {fileID: 0}
  m_NavMeshLayer: 0
  m_StaticEditorFlags: 0
  m_IsActive: 1
--- !u!4 &500120348
Transform:
  m_ObjectHideFlags: 0
  m_PrefabParentObject: {fileID: 4810828765201934, guid: 6884f69ad0adbb441905ff499f5d1ece,
    type: 2}
  m_PrefabInternal: {fileID: 671722722}
  m_GameObject: {fileID: 500120347}
  m_LocalRotation: {x: 0, y: -0, z: -0, w: 1}
  m_LocalPosition: {x: -0, y: 0, z: 0}
  m_LocalScale: {x: 0.8, y: 0.8, z: 0.8}
  m_Children: []
  m_Father: {fileID: 1340351357}
  m_RootOrder: 0
  m_LocalEulerAnglesHint: {x: 0, y: 0, z: 0}
--- !u!23 &500120349
MeshRenderer:
  m_ObjectHideFlags: 0
  m_PrefabParentObject: {fileID: 23181279924743248, guid: 6884f69ad0adbb441905ff499f5d1ece,
    type: 2}
  m_PrefabInternal: {fileID: 671722722}
  m_GameObject: {fileID: 500120347}
  m_Enabled: 1
  m_CastShadows: 1
  m_ReceiveShadows: 1
  m_DynamicOccludee: 1
  m_MotionVectors: 1
  m_LightProbeUsage: 1
  m_ReflectionProbeUsage: 1
  m_RenderingLayerMask: 4294967295
  m_Materials:
  - {fileID: 2100000, guid: c9a1fc3695f954675a170a24e9cfdeb7, type: 3}
  m_StaticBatchInfo:
    firstSubMesh: 0
    subMeshCount: 0
  m_StaticBatchRoot: {fileID: 0}
  m_ProbeAnchor: {fileID: 0}
  m_LightProbeVolumeOverride: {fileID: 0}
  m_ScaleInLightmap: 1
  m_PreserveUVs: 0
  m_IgnoreNormalsForChartDetection: 0
  m_ImportantGI: 0
  m_StitchLightmapSeams: 0
  m_SelectedEditorRenderState: 3
  m_MinimumChartSize: 4
  m_AutoUVMaxDistance: 0.5
  m_AutoUVMaxAngle: 89
  m_LightmapParameters: {fileID: 0}
  m_SortingLayerID: 0
  m_SortingLayer: 0
  m_SortingOrder: 0
--- !u!33 &500120350
MeshFilter:
  m_ObjectHideFlags: 0
  m_PrefabParentObject: {fileID: 33068601673080928, guid: 6884f69ad0adbb441905ff499f5d1ece,
    type: 2}
  m_PrefabInternal: {fileID: 671722722}
  m_GameObject: {fileID: 500120347}
  m_Mesh: {fileID: 4300000, guid: c9a1fc3695f954675a170a24e9cfdeb7, type: 3}
--- !u!1 &517041178
GameObject:
  m_ObjectHideFlags: 0
  m_PrefabParentObject: {fileID: 1801014961921116, guid: 3aae518756c7a3c46bf2b24558dc5b77,
    type: 2}
  m_PrefabInternal: {fileID: 886172232}
  serializedVersion: 5
  m_Component:
  - component: {fileID: 517041179}
  - component: {fileID: 517041182}
  - component: {fileID: 517041181}
  - component: {fileID: 517041180}
  m_Layer: 5
  m_Name: Controller Status Text
  m_TagString: Untagged
  m_Icon: {fileID: 0}
  m_NavMeshLayer: 0
  m_StaticEditorFlags: 0
  m_IsActive: 1
--- !u!224 &517041179
RectTransform:
  m_ObjectHideFlags: 0
  m_PrefabParentObject: {fileID: 224750024512138762, guid: 3aae518756c7a3c46bf2b24558dc5b77,
    type: 2}
  m_PrefabInternal: {fileID: 886172232}
  m_GameObject: {fileID: 517041178}
  m_LocalRotation: {x: -0, y: -0, z: -0, w: 1}
  m_LocalPosition: {x: 0, y: 0, z: 0}
  m_LocalScale: {x: 0.021428572, y: 0.021428572, z: 0}
  m_Children: []
  m_Father: {fileID: 886172233}
  m_RootOrder: 1
  m_LocalEulerAnglesHint: {x: 0, y: 0, z: 0}
  m_AnchorMin: {x: 0.5, y: 0.5}
  m_AnchorMax: {x: 0.5, y: 0.5}
  m_AnchoredPosition: {x: 0, y: -0.27}
  m_SizeDelta: {x: 160, y: 30}
  m_Pivot: {x: 0.5, y: 0.5}
--- !u!114 &517041180
MonoBehaviour:
  m_ObjectHideFlags: 0
  m_PrefabParentObject: {fileID: 114179439577410040, guid: 3aae518756c7a3c46bf2b24558dc5b77,
    type: 2}
  m_PrefabInternal: {fileID: 886172232}
  m_GameObject: {fileID: 517041178}
  m_Enabled: 1
  m_EditorHideFlags: 0
  m_Script: {fileID: 11500000, guid: 8a660d62a17dddf4abe4d32b17999b86, type: 3}
  m_Name: 
  m_EditorClassIdentifier: 
  _controllerConnectionHandler: {fileID: 671722724}
--- !u!114 &517041181
MonoBehaviour:
  m_ObjectHideFlags: 0
  m_PrefabParentObject: {fileID: 114033647627658722, guid: 3aae518756c7a3c46bf2b24558dc5b77,
    type: 2}
  m_PrefabInternal: {fileID: 886172232}
  m_GameObject: {fileID: 517041178}
  m_Enabled: 1
  m_EditorHideFlags: 0
  m_Script: {fileID: 708705254, guid: f70555f144d8491a825f0804e09c671c, type: 3}
  m_Name: 
  m_EditorClassIdentifier: 
  m_Material: {fileID: 0}
  m_Color: {r: 1, g: 1, b: 1, a: 1}
  m_RaycastTarget: 1
  m_OnCullStateChanged:
    m_PersistentCalls:
      m_Calls: []
    m_TypeName: UnityEngine.UI.MaskableGraphic+CullStateChangedEvent, UnityEngine.UI,
      Version=1.0.0.0, Culture=neutral, PublicKeyToken=null
  m_FontData:
    m_Font: {fileID: 12800000, guid: adcae46baa3736748a69f9f489676bd7, type: 3}
    m_FontSize: 12
    m_FontStyle: 1
    m_BestFit: 0
    m_MinSize: 0
    m_MaxSize: 40
    m_Alignment: 4
    m_AlignByGeometry: 0
    m_RichText: 1
    m_HorizontalOverflow: 1
    m_VerticalOverflow: 1
    m_LineSpacing: 1
  m_Text: Controller Status
--- !u!222 &517041182
CanvasRenderer:
  m_ObjectHideFlags: 0
  m_PrefabParentObject: {fileID: 222622875505963608, guid: 3aae518756c7a3c46bf2b24558dc5b77,
    type: 2}
  m_PrefabInternal: {fileID: 886172232}
  m_GameObject: {fileID: 517041178}
--- !u!1001 &671722722
Prefab:
  m_ObjectHideFlags: 0
  serializedVersion: 2
  m_Modification:
    m_TransformParent: {fileID: 234904009}
    m_Modifications:
    - target: {fileID: 4724017855786006, guid: 6884f69ad0adbb441905ff499f5d1ece, type: 2}
      propertyPath: m_LocalPosition.x
      value: 0
      objectReference: {fileID: 0}
    - target: {fileID: 4724017855786006, guid: 6884f69ad0adbb441905ff499f5d1ece, type: 2}
      propertyPath: m_LocalPosition.y
      value: 0
      objectReference: {fileID: 0}
    - target: {fileID: 4724017855786006, guid: 6884f69ad0adbb441905ff499f5d1ece, type: 2}
      propertyPath: m_LocalPosition.z
      value: 0
      objectReference: {fileID: 0}
    - target: {fileID: 4724017855786006, guid: 6884f69ad0adbb441905ff499f5d1ece, type: 2}
      propertyPath: m_LocalRotation.x
      value: -0
      objectReference: {fileID: 0}
    - target: {fileID: 4724017855786006, guid: 6884f69ad0adbb441905ff499f5d1ece, type: 2}
      propertyPath: m_LocalRotation.y
      value: -0
      objectReference: {fileID: 0}
    - target: {fileID: 4724017855786006, guid: 6884f69ad0adbb441905ff499f5d1ece, type: 2}
      propertyPath: m_LocalRotation.z
      value: -0
      objectReference: {fileID: 0}
    - target: {fileID: 4724017855786006, guid: 6884f69ad0adbb441905ff499f5d1ece, type: 2}
      propertyPath: m_LocalRotation.w
      value: 1
      objectReference: {fileID: 0}
    - target: {fileID: 4724017855786006, guid: 6884f69ad0adbb441905ff499f5d1ece, type: 2}
      propertyPath: m_RootOrder
      value: 1
      objectReference: {fileID: 0}
    - target: {fileID: 114496639997083650, guid: 6884f69ad0adbb441905ff499f5d1ece,
        type: 2}
      propertyPath: _devicesAllowed
      value: 6
      objectReference: {fileID: 0}
    m_RemovedComponents: []
  m_ParentPrefab: {fileID: 100100000, guid: 6884f69ad0adbb441905ff499f5d1ece, type: 2}
  m_RootGameObject: {fileID: 100327523}
  m_IsPrefabParent: 0
--- !u!4 &671722723
Transform:
  m_ObjectHideFlags: 0
  m_PrefabParentObject: {fileID: 4724017855786006, guid: 6884f69ad0adbb441905ff499f5d1ece,
    type: 2}
  m_PrefabInternal: {fileID: 671722722}
  m_GameObject: {fileID: 100327523}
  m_LocalRotation: {x: -0, y: -0, z: -0, w: 1}
  m_LocalPosition: {x: 0, y: 0, z: 0}
  m_LocalScale: {x: 1, y: 1, z: 1}
  m_Children:
  - {fileID: 1982003599}
  - {fileID: 1514157459}
  m_Father: {fileID: 234904009}
  m_RootOrder: 1
  m_LocalEulerAnglesHint: {x: 0, y: 0, z: 0}
--- !u!114 &671722724
MonoBehaviour:
  m_ObjectHideFlags: 0
  m_PrefabParentObject: {fileID: 114463424589709878, guid: 6884f69ad0adbb441905ff499f5d1ece,
    type: 2}
  m_PrefabInternal: {fileID: 671722722}
  m_GameObject: {fileID: 100327523}
  m_Enabled: 1
  m_EditorHideFlags: 0
  m_Script: {fileID: 11500000, guid: 97d97f3bfb1874341bd827a81a6bb64f, type: 3}
  m_Name: 
  m_EditorClassIdentifier: 
  _devicesAllowed: 7
--- !u!1 &726316010
GameObject:
  m_ObjectHideFlags: 0
  m_PrefabParentObject: {fileID: 1140319461485794, guid: 3aae518756c7a3c46bf2b24558dc5b77,
    type: 2}
  m_PrefabInternal: {fileID: 886172232}
  serializedVersion: 5
  m_Component:
  - component: {fileID: 726316011}
  - component: {fileID: 726316013}
  - component: {fileID: 726316012}
  m_Layer: 0
  m_Name: Controller Status Icon
  m_TagString: Untagged
  m_Icon: {fileID: 0}
  m_NavMeshLayer: 0
  m_StaticEditorFlags: 0
  m_IsActive: 1
--- !u!4 &726316011
Transform:
  m_ObjectHideFlags: 0
  m_PrefabParentObject: {fileID: 4127378714913130, guid: 3aae518756c7a3c46bf2b24558dc5b77,
    type: 2}
  m_PrefabInternal: {fileID: 886172232}
  m_GameObject: {fileID: 726316010}
  m_LocalRotation: {x: -0, y: -0, z: -0, w: 1}
  m_LocalPosition: {x: 0, y: 0.42857143, z: 0}
  m_LocalScale: {x: 1, y: 1, z: 0}
  m_Children: []
  m_Father: {fileID: 886172233}
  m_RootOrder: 0
  m_LocalEulerAnglesHint: {x: 0, y: 0, z: 0}
--- !u!114 &726316012
MonoBehaviour:
  m_ObjectHideFlags: 0
  m_PrefabParentObject: {fileID: 114366043123998692, guid: 3aae518756c7a3c46bf2b24558dc5b77,
    type: 2}
  m_PrefabInternal: {fileID: 886172232}
  m_GameObject: {fileID: 726316010}
  m_Enabled: 1
  m_EditorHideFlags: 0
  m_Script: {fileID: 11500000, guid: 351ff1e5a912983408cacef6e18aadca, type: 3}
  m_Name: 
  m_EditorClassIdentifier: 
  _controllerIcon: {fileID: 21300000, guid: 8a0754f2766f2fd4bab30b039e7369ea, type: 3}
  _mobileAppIcon: {fileID: 21300000, guid: a08aff0c7b507c04da4da4d952ea2f1f, type: 3}
  _controllerConnectionHandler: {fileID: 671722724}
--- !u!212 &726316013
SpriteRenderer:
  m_ObjectHideFlags: 0
  m_PrefabParentObject: {fileID: 212736544333711588, guid: 3aae518756c7a3c46bf2b24558dc5b77,
    type: 2}
  m_PrefabInternal: {fileID: 886172232}
  m_GameObject: {fileID: 726316010}
  m_Enabled: 1
  m_CastShadows: 0
  m_ReceiveShadows: 0
  m_DynamicOccludee: 1
  m_MotionVectors: 1
  m_LightProbeUsage: 1
  m_ReflectionProbeUsage: 1
  m_RenderingLayerMask: 4294967295
  m_Materials:
  - {fileID: 10754, guid: 0000000000000000f000000000000000, type: 0}
  m_StaticBatchInfo:
    firstSubMesh: 0
    subMeshCount: 0
  m_StaticBatchRoot: {fileID: 0}
  m_ProbeAnchor: {fileID: 0}
  m_LightProbeVolumeOverride: {fileID: 0}
  m_ScaleInLightmap: 1
  m_PreserveUVs: 0
  m_IgnoreNormalsForChartDetection: 0
  m_ImportantGI: 0
  m_StitchLightmapSeams: 0
  m_SelectedEditorRenderState: 0
  m_MinimumChartSize: 4
  m_AutoUVMaxDistance: 0.5
  m_AutoUVMaxAngle: 89
  m_LightmapParameters: {fileID: 0}
  m_SortingLayerID: 0
  m_SortingLayer: 0
  m_SortingOrder: 0
  m_Sprite: {fileID: 21300000, guid: 8a0754f2766f2fd4bab30b039e7369ea, type: 3}
  m_Color: {r: 1, g: 1, b: 1, a: 1}
  m_FlipX: 0
  m_FlipY: 0
  m_DrawMode: 0
  m_Size: {x: 1, y: 1}
  m_AdaptiveModeThreshold: 0.5
  m_SpriteTileMode: 0
  m_WasSpriteAssigned: 1
  m_MaskInteraction: 0
--- !u!1 &782317127
GameObject:
  m_ObjectHideFlags: 0
  m_PrefabParentObject: {fileID: 1854827734108154, guid: 6884f69ad0adbb441905ff499f5d1ece,
    type: 2}
  m_PrefabInternal: {fileID: 671722722}
  serializedVersion: 5
  m_Component:
  - component: {fileID: 782317128}
  - component: {fileID: 782317130}
  - component: {fileID: 782317129}
  m_Layer: 0
  m_Name: Controller_Body
  m_TagString: Untagged
  m_Icon: {fileID: 0}
  m_NavMeshLayer: 0
  m_StaticEditorFlags: 0
  m_IsActive: 1
--- !u!4 &782317128
Transform:
  m_ObjectHideFlags: 0
  m_PrefabParentObject: {fileID: 4269963376588676, guid: 6884f69ad0adbb441905ff499f5d1ece,
    type: 2}
  m_PrefabInternal: {fileID: 671722722}
  m_GameObject: {fileID: 782317127}
  m_LocalRotation: {x: 0, y: -0, z: -0, w: 1}
  m_LocalPosition: {x: -0.000001679097, y: -0.066253215, z: -0.01283793}
  m_LocalScale: {x: 1, y: 1, z: 1}
  m_Children: []
  m_Father: {fileID: 1514157459}
  m_RootOrder: 0
  m_LocalEulerAnglesHint: {x: 0, y: 0, z: 0}
--- !u!23 &782317129
MeshRenderer:
  m_ObjectHideFlags: 0
  m_PrefabParentObject: {fileID: 23151951069395752, guid: 6884f69ad0adbb441905ff499f5d1ece,
    type: 2}
  m_PrefabInternal: {fileID: 671722722}
  m_GameObject: {fileID: 782317127}
  m_Enabled: 1
  m_CastShadows: 1
  m_ReceiveShadows: 1
  m_DynamicOccludee: 1
  m_MotionVectors: 1
  m_LightProbeUsage: 1
  m_ReflectionProbeUsage: 1
  m_RenderingLayerMask: 4294967295
  m_Materials:
  - {fileID: 2100000, guid: d89a73bc826d4d248b1cde764731779a, type: 2}
  m_StaticBatchInfo:
    firstSubMesh: 0
    subMeshCount: 0
  m_StaticBatchRoot: {fileID: 0}
  m_ProbeAnchor: {fileID: 0}
  m_LightProbeVolumeOverride: {fileID: 0}
  m_ScaleInLightmap: 1
  m_PreserveUVs: 0
  m_IgnoreNormalsForChartDetection: 0
  m_ImportantGI: 0
  m_StitchLightmapSeams: 0
  m_SelectedEditorRenderState: 3
  m_MinimumChartSize: 4
  m_AutoUVMaxDistance: 0.5
  m_AutoUVMaxAngle: 89
  m_LightmapParameters: {fileID: 0}
  m_SortingLayerID: 0
  m_SortingLayer: 0
  m_SortingOrder: 0
--- !u!33 &782317130
MeshFilter:
  m_ObjectHideFlags: 0
  m_PrefabParentObject: {fileID: 33182600170310494, guid: 6884f69ad0adbb441905ff499f5d1ece,
    type: 2}
  m_PrefabInternal: {fileID: 671722722}
  m_GameObject: {fileID: 782317127}
  m_Mesh: {fileID: 4300008, guid: 5b285b3c693725c4995ec9b2a3eb1496, type: 3}
--- !u!1 &832938150
GameObject:
  m_ObjectHideFlags: 0
  m_PrefabParentObject: {fileID: 1265418287457862, guid: 6884f69ad0adbb441905ff499f5d1ece,
    type: 2}
  m_PrefabInternal: {fileID: 671722722}
  serializedVersion: 5
  m_Component:
  - component: {fileID: 832938151}
  - component: {fileID: 832938153}
  - component: {fileID: 832938152}
  m_Layer: 0
  m_Name: Z_Sphere1
  m_TagString: Untagged
  m_Icon: {fileID: 0}
  m_NavMeshLayer: 0
  m_StaticEditorFlags: 0
  m_IsActive: 1
--- !u!4 &832938151
Transform:
  m_ObjectHideFlags: 0
  m_PrefabParentObject: {fileID: 4749123578658406, guid: 6884f69ad0adbb441905ff499f5d1ece,
    type: 2}
  m_PrefabInternal: {fileID: 671722722}
  m_GameObject: {fileID: 832938150}
  m_LocalRotation: {x: 0, y: -0, z: -0, w: 1}
  m_LocalPosition: {x: -0, y: 0, z: 0.100000076}
  m_LocalScale: {x: 0.2360864, y: 0.2360864, z: 0.2360864}
  m_Children: []
  m_Father: {fileID: 1982003599}
  m_RootOrder: 10
  m_LocalEulerAnglesHint: {x: 0, y: 0, z: 0}
--- !u!23 &832938152
MeshRenderer:
  m_ObjectHideFlags: 0
  m_PrefabParentObject: {fileID: 23442645586019894, guid: 6884f69ad0adbb441905ff499f5d1ece,
    type: 2}
  m_PrefabInternal: {fileID: 671722722}
  m_GameObject: {fileID: 832938150}
  m_Enabled: 1
  m_CastShadows: 1
  m_ReceiveShadows: 1
  m_DynamicOccludee: 1
  m_MotionVectors: 1
  m_LightProbeUsage: 1
  m_ReflectionProbeUsage: 1
  m_RenderingLayerMask: 4294967295
  m_Materials:
  - {fileID: 2100000, guid: dce284ccd24f4ae4ab1bd9256da4a4bd, type: 2}
  m_StaticBatchInfo:
    firstSubMesh: 0
    subMeshCount: 0
  m_StaticBatchRoot: {fileID: 0}
  m_ProbeAnchor: {fileID: 0}
  m_LightProbeVolumeOverride: {fileID: 0}
  m_ScaleInLightmap: 1
  m_PreserveUVs: 0
  m_IgnoreNormalsForChartDetection: 0
  m_ImportantGI: 0
  m_StitchLightmapSeams: 0
  m_SelectedEditorRenderState: 3
  m_MinimumChartSize: 4
  m_AutoUVMaxDistance: 0.5
  m_AutoUVMaxAngle: 89
  m_LightmapParameters: {fileID: 0}
  m_SortingLayerID: 0
  m_SortingLayer: 0
  m_SortingOrder: 0
--- !u!33 &832938153
MeshFilter:
  m_ObjectHideFlags: 0
  m_PrefabParentObject: {fileID: 33136380256031394, guid: 6884f69ad0adbb441905ff499f5d1ece,
    type: 2}
  m_PrefabInternal: {fileID: 671722722}
  m_GameObject: {fileID: 832938150}
  m_Mesh: {fileID: 4300002, guid: 19e8f0334d30adc46be9a93a73b14e80, type: 3}
--- !u!1001 &886172232
Prefab:
  m_ObjectHideFlags: 0
  serializedVersion: 2
  m_Modification:
    m_TransformParent: {fileID: 1468009404}
    m_Modifications:
    - target: {fileID: 4660096415485334, guid: 3aae518756c7a3c46bf2b24558dc5b77, type: 2}
      propertyPath: m_LocalPosition.x
      value: 0.38
      objectReference: {fileID: 0}
    - target: {fileID: 4660096415485334, guid: 3aae518756c7a3c46bf2b24558dc5b77, type: 2}
      propertyPath: m_LocalPosition.y
      value: 0.17
      objectReference: {fileID: 0}
    - target: {fileID: 4660096415485334, guid: 3aae518756c7a3c46bf2b24558dc5b77, type: 2}
      propertyPath: m_LocalPosition.z
      value: 0
      objectReference: {fileID: 0}
    - target: {fileID: 4660096415485334, guid: 3aae518756c7a3c46bf2b24558dc5b77, type: 2}
      propertyPath: m_LocalRotation.x
      value: -0
      objectReference: {fileID: 0}
    - target: {fileID: 4660096415485334, guid: 3aae518756c7a3c46bf2b24558dc5b77, type: 2}
      propertyPath: m_LocalRotation.y
      value: -0
      objectReference: {fileID: 0}
    - target: {fileID: 4660096415485334, guid: 3aae518756c7a3c46bf2b24558dc5b77, type: 2}
      propertyPath: m_LocalRotation.z
      value: -0
      objectReference: {fileID: 0}
    - target: {fileID: 4660096415485334, guid: 3aae518756c7a3c46bf2b24558dc5b77, type: 2}
      propertyPath: m_LocalRotation.w
      value: 1
      objectReference: {fileID: 0}
    - target: {fileID: 4660096415485334, guid: 3aae518756c7a3c46bf2b24558dc5b77, type: 2}
      propertyPath: m_RootOrder
      value: 2
      objectReference: {fileID: 0}
    - target: {fileID: 114366043123998692, guid: 3aae518756c7a3c46bf2b24558dc5b77,
        type: 2}
      propertyPath: _controllerConnectionHandler
      value: 
      objectReference: {fileID: 671722724}
    - target: {fileID: 114179439577410040, guid: 3aae518756c7a3c46bf2b24558dc5b77,
        type: 2}
      propertyPath: _controllerConnectionHandler
      value: 
      objectReference: {fileID: 671722724}
    m_RemovedComponents: []
  m_ParentPrefab: {fileID: 100100000, guid: 3aae518756c7a3c46bf2b24558dc5b77, type: 2}
  m_RootGameObject: {fileID: 1165389580}
  m_IsPrefabParent: 0
--- !u!4 &886172233
Transform:
  m_ObjectHideFlags: 0
  m_PrefabParentObject: {fileID: 4660096415485334, guid: 3aae518756c7a3c46bf2b24558dc5b77,
    type: 2}
  m_PrefabInternal: {fileID: 886172232}
  m_GameObject: {fileID: 1165389580}
  m_LocalRotation: {x: -0, y: -0, z: -0, w: 1}
  m_LocalPosition: {x: 0.38, y: 0.17, z: 0}
  m_LocalScale: {x: 0.07, y: 0.07, z: 0}
  m_Children:
  - {fileID: 726316011}
  - {fileID: 517041179}
  m_Father: {fileID: 1468009404}
  m_RootOrder: 2
  m_LocalEulerAnglesHint: {x: 0, y: 0, z: 0}
--- !u!1 &989537771
GameObject:
  m_ObjectHideFlags: 0
  m_PrefabParentObject: {fileID: 1364984497300248, guid: 6884f69ad0adbb441905ff499f5d1ece,
    type: 2}
  m_PrefabInternal: {fileID: 671722722}
  serializedVersion: 5
  m_Component:
  - component: {fileID: 989537772}
  - component: {fileID: 989537774}
  - component: {fileID: 989537773}
  m_Layer: 0
  m_Name: Controller_FrontButton
  m_TagString: Untagged
  m_Icon: {fileID: 0}
  m_NavMeshLayer: 0
  m_StaticEditorFlags: 0
  m_IsActive: 1
--- !u!4 &989537772
Transform:
  m_ObjectHideFlags: 0
  m_PrefabParentObject: {fileID: 4917297914019518, guid: 6884f69ad0adbb441905ff499f5d1ece,
    type: 2}
  m_PrefabInternal: {fileID: 671722722}
  m_GameObject: {fileID: 989537771}
  m_LocalRotation: {x: 0, y: -0, z: -0, w: 1}
  m_LocalPosition: {x: -0.000023241673, y: -0.010842347, z: 0.029542008}
  m_LocalScale: {x: 1, y: 1, z: 1}
  m_Children: []
  m_Father: {fileID: 1514157459}
  m_RootOrder: 1
  m_LocalEulerAnglesHint: {x: 0, y: 0, z: 0}
--- !u!23 &989537773
MeshRenderer:
  m_ObjectHideFlags: 0
  m_PrefabParentObject: {fileID: 23778214634507838, guid: 6884f69ad0adbb441905ff499f5d1ece,
    type: 2}
  m_PrefabInternal: {fileID: 671722722}
  m_GameObject: {fileID: 989537771}
  m_Enabled: 1
  m_CastShadows: 1
  m_ReceiveShadows: 1
  m_DynamicOccludee: 1
  m_MotionVectors: 1
  m_LightProbeUsage: 1
  m_ReflectionProbeUsage: 1
  m_RenderingLayerMask: 4294967295
  m_Materials:
  - {fileID: 2100000, guid: d89a73bc826d4d248b1cde764731779a, type: 2}
  m_StaticBatchInfo:
    firstSubMesh: 0
    subMeshCount: 0
  m_StaticBatchRoot: {fileID: 0}
  m_ProbeAnchor: {fileID: 0}
  m_LightProbeVolumeOverride: {fileID: 0}
  m_ScaleInLightmap: 1
  m_PreserveUVs: 0
  m_IgnoreNormalsForChartDetection: 0
  m_ImportantGI: 0
  m_StitchLightmapSeams: 0
  m_SelectedEditorRenderState: 3
  m_MinimumChartSize: 4
  m_AutoUVMaxDistance: 0.5
  m_AutoUVMaxAngle: 89
  m_LightmapParameters: {fileID: 0}
  m_SortingLayerID: 0
  m_SortingLayer: 0
  m_SortingOrder: 0
--- !u!33 &989537774
MeshFilter:
  m_ObjectHideFlags: 0
  m_PrefabParentObject: {fileID: 33426787715049294, guid: 6884f69ad0adbb441905ff499f5d1ece,
    type: 2}
  m_PrefabInternal: {fileID: 671722722}
  m_GameObject: {fileID: 989537771}
  m_Mesh: {fileID: 4300006, guid: 5b285b3c693725c4995ec9b2a3eb1496, type: 3}
--- !u!1 &990554884
GameObject:
  m_ObjectHideFlags: 0
  m_PrefabParentObject: {fileID: 1760301838442720, guid: 6884f69ad0adbb441905ff499f5d1ece,
    type: 2}
  m_PrefabInternal: {fileID: 671722722}
  serializedVersion: 5
  m_Component:
  - component: {fileID: 990554885}
  - component: {fileID: 990554887}
  - component: {fileID: 990554886}
  m_Layer: 0
  m_Name: X_Sphere2
  m_TagString: Untagged
  m_Icon: {fileID: 0}
  m_NavMeshLayer: 0
  m_StaticEditorFlags: 0
  m_IsActive: 1
--- !u!4 &990554885
Transform:
  m_ObjectHideFlags: 0
  m_PrefabParentObject: {fileID: 4532744085709226, guid: 6884f69ad0adbb441905ff499f5d1ece,
    type: 2}
  m_PrefabInternal: {fileID: 671722722}
  m_GameObject: {fileID: 990554884}
  m_LocalRotation: {x: 0, y: -0, z: -0, w: 1}
  m_LocalPosition: {x: -0.1273, y: 0, z: 0}
  m_LocalScale: {x: 0.2, y: 0.2, z: 0.2}
  m_Children: []
  m_Father: {fileID: 1982003599}
  m_RootOrder: 1
  m_LocalEulerAnglesHint: {x: 0, y: 0, z: 0}
--- !u!23 &990554886
MeshRenderer:
  m_ObjectHideFlags: 0
  m_PrefabParentObject: {fileID: 23984453453891658, guid: 6884f69ad0adbb441905ff499f5d1ece,
    type: 2}
  m_PrefabInternal: {fileID: 671722722}
  m_GameObject: {fileID: 990554884}
  m_Enabled: 1
  m_CastShadows: 1
  m_ReceiveShadows: 1
  m_DynamicOccludee: 1
  m_MotionVectors: 1
  m_LightProbeUsage: 1
  m_ReflectionProbeUsage: 1
  m_RenderingLayerMask: 4294967295
  m_Materials:
  - {fileID: 2100000, guid: 5808511577e4da7488e7fc2fcfb7d238, type: 2}
  m_StaticBatchInfo:
    firstSubMesh: 0
    subMeshCount: 0
  m_StaticBatchRoot: {fileID: 0}
  m_ProbeAnchor: {fileID: 0}
  m_LightProbeVolumeOverride: {fileID: 0}
  m_ScaleInLightmap: 1
  m_PreserveUVs: 0
  m_IgnoreNormalsForChartDetection: 0
  m_ImportantGI: 0
  m_StitchLightmapSeams: 0
  m_SelectedEditorRenderState: 3
  m_MinimumChartSize: 4
  m_AutoUVMaxDistance: 0.5
  m_AutoUVMaxAngle: 89
  m_LightmapParameters: {fileID: 0}
  m_SortingLayerID: 0
  m_SortingLayer: 0
  m_SortingOrder: 0
--- !u!33 &990554887
MeshFilter:
  m_ObjectHideFlags: 0
  m_PrefabParentObject: {fileID: 33461394276667038, guid: 6884f69ad0adbb441905ff499f5d1ece,
    type: 2}
  m_PrefabInternal: {fileID: 671722722}
  m_GameObject: {fileID: 990554884}
  m_Mesh: {fileID: 4300024, guid: 19e8f0334d30adc46be9a93a73b14e80, type: 3}
--- !u!1 &1150943207
GameObject:
  m_ObjectHideFlags: 0
  m_PrefabParentObject: {fileID: 1780488402843696, guid: 6884f69ad0adbb441905ff499f5d1ece,
    type: 2}
  m_PrefabInternal: {fileID: 671722722}
  serializedVersion: 5
  m_Component:
  - component: {fileID: 1150943208}
  - component: {fileID: 1150943210}
  - component: {fileID: 1150943209}
  m_Layer: 0
  m_Name: X_Sphere4
  m_TagString: Untagged
  m_Icon: {fileID: 0}
  m_NavMeshLayer: 0
  m_StaticEditorFlags: 0
  m_IsActive: 1
--- !u!4 &1150943208
Transform:
  m_ObjectHideFlags: 0
  m_PrefabParentObject: {fileID: 4982456966477536, guid: 6884f69ad0adbb441905ff499f5d1ece,
    type: 2}
  m_PrefabInternal: {fileID: 671722722}
  m_GameObject: {fileID: 1150943207}
  m_LocalRotation: {x: 0, y: -0, z: -0, w: 1}
  m_LocalPosition: {x: -0.1743, y: 0, z: 0}
  m_LocalScale: {x: 0.13, y: 0.13, z: 0.13}
  m_Children: []
  m_Father: {fileID: 1982003599}
  m_RootOrder: 3
  m_LocalEulerAnglesHint: {x: 0, y: 0, z: 0}
--- !u!23 &1150943209
MeshRenderer:
  m_ObjectHideFlags: 0
  m_PrefabParentObject: {fileID: 23023479083868972, guid: 6884f69ad0adbb441905ff499f5d1ece,
    type: 2}
  m_PrefabInternal: {fileID: 671722722}
  m_GameObject: {fileID: 1150943207}
  m_Enabled: 1
  m_CastShadows: 1
  m_ReceiveShadows: 1
  m_DynamicOccludee: 1
  m_MotionVectors: 1
  m_LightProbeUsage: 1
  m_ReflectionProbeUsage: 1
  m_RenderingLayerMask: 4294967295
  m_Materials:
  - {fileID: 2100000, guid: 5808511577e4da7488e7fc2fcfb7d238, type: 2}
  m_StaticBatchInfo:
    firstSubMesh: 0
    subMeshCount: 0
  m_StaticBatchRoot: {fileID: 0}
  m_ProbeAnchor: {fileID: 0}
  m_LightProbeVolumeOverride: {fileID: 0}
  m_ScaleInLightmap: 1
  m_PreserveUVs: 0
  m_IgnoreNormalsForChartDetection: 0
  m_ImportantGI: 0
  m_StitchLightmapSeams: 0
  m_SelectedEditorRenderState: 3
  m_MinimumChartSize: 4
  m_AutoUVMaxDistance: 0.5
  m_AutoUVMaxAngle: 89
  m_LightmapParameters: {fileID: 0}
  m_SortingLayerID: 0
  m_SortingLayer: 0
  m_SortingOrder: 0
--- !u!33 &1150943210
MeshFilter:
  m_ObjectHideFlags: 0
  m_PrefabParentObject: {fileID: 33423043355143336, guid: 6884f69ad0adbb441905ff499f5d1ece,
    type: 2}
  m_PrefabInternal: {fileID: 671722722}
  m_GameObject: {fileID: 1150943207}
  m_Mesh: {fileID: 4300028, guid: 19e8f0334d30adc46be9a93a73b14e80, type: 3}
--- !u!1 &1165389580
GameObject:
  m_ObjectHideFlags: 0
  m_PrefabParentObject: {fileID: 1427517420926152, guid: 3aae518756c7a3c46bf2b24558dc5b77,
    type: 2}
  m_PrefabInternal: {fileID: 886172232}
  serializedVersion: 5
  m_Component:
  - component: {fileID: 886172233}
  m_Layer: 0
  m_Name: ControllerStatus
  m_TagString: Untagged
  m_Icon: {fileID: 0}
  m_NavMeshLayer: 0
  m_StaticEditorFlags: 0
  m_IsActive: 1
--- !u!1 &1340351356
GameObject:
  m_ObjectHideFlags: 0
  m_PrefabParentObject: {fileID: 1122385099684648, guid: 6884f69ad0adbb441905ff499f5d1ece,
    type: 2}
  m_PrefabInternal: {fileID: 671722722}
  serializedVersion: 5
  m_Component:
  - component: {fileID: 1340351357}
  m_Layer: 0
  m_Name: Adjust
  m_TagString: Untagged
  m_Icon: {fileID: 0}
  m_NavMeshLayer: 0
  m_StaticEditorFlags: 0
  m_IsActive: 1
--- !u!4 &1340351357
Transform:
  m_ObjectHideFlags: 0
  m_PrefabParentObject: {fileID: 4272159909045868, guid: 6884f69ad0adbb441905ff499f5d1ece,
    type: 2}
  m_PrefabInternal: {fileID: 671722722}
  m_GameObject: {fileID: 1340351356}
  m_LocalRotation: {x: -0.1882384, y: 0, z: 0, w: 0.9821234}
  m_LocalPosition: {x: 0, y: 0.005, z: 0}
  m_LocalScale: {x: 1, y: 1, z: 1}
  m_Children:
  - {fileID: 500120348}
  m_Father: {fileID: 266160902}
  m_RootOrder: 0
  m_LocalEulerAnglesHint: {x: -21.7, y: 0, z: 0}
--- !u!1 &1394519165
GameObject:
  m_ObjectHideFlags: 0
  m_PrefabParentObject: {fileID: 1768309164956276, guid: 6884f69ad0adbb441905ff499f5d1ece,
    type: 2}
  m_PrefabInternal: {fileID: 671722722}
  serializedVersion: 5
  m_Component:
  - component: {fileID: 1394519166}
  - component: {fileID: 1394519168}
  - component: {fileID: 1394519167}
  m_Layer: 0
  m_Name: Y_Sphere4
  m_TagString: Untagged
  m_Icon: {fileID: 0}
  m_NavMeshLayer: 0
  m_StaticEditorFlags: 0
  m_IsActive: 1
--- !u!4 &1394519166
Transform:
  m_ObjectHideFlags: 0
  m_PrefabParentObject: {fileID: 4986566178930966, guid: 6884f69ad0adbb441905ff499f5d1ece,
    type: 2}
  m_PrefabInternal: {fileID: 671722722}
  m_GameObject: {fileID: 1394519165}
  m_LocalRotation: {x: 0, y: -0, z: -0, w: 1}
  m_LocalPosition: {x: -0, y: 0.1367, z: 0}
  m_LocalScale: {x: 0.13, y: 0.13, z: 0.13}
  m_Children: []
  m_Father: {fileID: 1982003599}
  m_RootOrder: 8
  m_LocalEulerAnglesHint: {x: 0, y: 0, z: 0}
--- !u!23 &1394519167
MeshRenderer:
  m_ObjectHideFlags: 0
  m_PrefabParentObject: {fileID: 23804078526076964, guid: 6884f69ad0adbb441905ff499f5d1ece,
    type: 2}
  m_PrefabInternal: {fileID: 671722722}
  m_GameObject: {fileID: 1394519165}
  m_Enabled: 1
  m_CastShadows: 1
  m_ReceiveShadows: 1
  m_DynamicOccludee: 1
  m_MotionVectors: 1
  m_LightProbeUsage: 1
  m_ReflectionProbeUsage: 1
  m_RenderingLayerMask: 4294967295
  m_Materials:
  - {fileID: 2100000, guid: e7a7c9478d52894418873be6d4bfd5fe, type: 2}
  m_StaticBatchInfo:
    firstSubMesh: 0
    subMeshCount: 0
  m_StaticBatchRoot: {fileID: 0}
  m_ProbeAnchor: {fileID: 0}
  m_LightProbeVolumeOverride: {fileID: 0}
  m_ScaleInLightmap: 1
  m_PreserveUVs: 0
  m_IgnoreNormalsForChartDetection: 0
  m_ImportantGI: 0
  m_StitchLightmapSeams: 0
  m_SelectedEditorRenderState: 3
  m_MinimumChartSize: 4
  m_AutoUVMaxDistance: 0.5
  m_AutoUVMaxAngle: 89
  m_LightmapParameters: {fileID: 0}
  m_SortingLayerID: 0
  m_SortingLayer: 0
  m_SortingOrder: 0
--- !u!33 &1394519168
MeshFilter:
  m_ObjectHideFlags: 0
  m_PrefabParentObject: {fileID: 33219080783730290, guid: 6884f69ad0adbb441905ff499f5d1ece,
    type: 2}
  m_PrefabInternal: {fileID: 671722722}
  m_GameObject: {fileID: 1394519165}
  m_Mesh: {fileID: 4300020, guid: 19e8f0334d30adc46be9a93a73b14e80, type: 3}
--- !u!1 &1462129510
GameObject:
  m_ObjectHideFlags: 0
  m_PrefabParentObject: {fileID: 0}
  m_PrefabInternal: {fileID: 0}
  serializedVersion: 5
  m_Component:
  - component: {fileID: 1462129512}
  - component: {fileID: 1462129511}
  m_Layer: 0
  m_Name: Directional Light
  m_TagString: Untagged
  m_Icon: {fileID: 0}
  m_NavMeshLayer: 0
  m_StaticEditorFlags: 0
  m_IsActive: 1
--- !u!108 &1462129511
Light:
  m_ObjectHideFlags: 0
  m_PrefabParentObject: {fileID: 0}
  m_PrefabInternal: {fileID: 0}
  m_GameObject: {fileID: 1462129510}
  m_Enabled: 1
  serializedVersion: 8
  m_Type: 1
  m_Color: {r: 1, g: 0.95686275, b: 0.8392157, a: 1}
  m_Intensity: 1
  m_Range: 10
  m_SpotAngle: 30
  m_CookieSize: 10
  m_Shadows:
    m_Type: 2
    m_Resolution: -1
    m_CustomResolution: -1
    m_Strength: 1
    m_Bias: 0.05
    m_NormalBias: 0.4
    m_NearPlane: 0.2
  m_Cookie: {fileID: 0}
  m_DrawHalo: 0
  m_Flare: {fileID: 0}
  m_RenderMode: 0
  m_CullingMask:
    serializedVersion: 2
    m_Bits: 4294967295
  m_Lightmapping: 4
  m_AreaSize: {x: 1, y: 1}
  m_BounceIntensity: 1
  m_ColorTemperature: 6570
  m_UseColorTemperature: 0
  m_ShadowRadius: 0
  m_ShadowAngle: 0
--- !u!4 &1462129512
Transform:
  m_ObjectHideFlags: 0
  m_PrefabParentObject: {fileID: 0}
  m_PrefabInternal: {fileID: 0}
  m_GameObject: {fileID: 1462129510}
  m_LocalRotation: {x: 0.40821797, y: -0.23456973, z: 0.10938168, w: 0.87542605}
  m_LocalPosition: {x: 0, y: 3, z: 0}
  m_LocalScale: {x: 1, y: 1, z: 1}
  m_Children: []
  m_Father: {fileID: 1731829235}
  m_RootOrder: 1
  m_LocalEulerAnglesHint: {x: 0, y: 0, z: 0}
--- !u!224 &1468009404
RectTransform:
  m_ObjectHideFlags: 0
  m_PrefabParentObject: {fileID: 224429418900042632, guid: dcbf1437f0912414da095cb522586e5c,
    type: 2}
  m_PrefabInternal: {fileID: 0}
  m_GameObject: {fileID: 412655402}
  m_LocalRotation: {x: -0, y: -0, z: -0, w: 1}
  m_LocalPosition: {x: 0, y: 0, z: 0}
  m_LocalScale: {x: 1, y: 1, z: 0}
  m_Children:
  - {fileID: 2081483296}
  - {fileID: 351459060}
  - {fileID: 886172233}
  m_Father: {fileID: 1731829235}
  m_RootOrder: 0
  m_LocalEulerAnglesHint: {x: 0, y: 0, z: 0}
  m_AnchorMin: {x: 0, y: 0}
  m_AnchorMax: {x: 0, y: 0}
  m_AnchoredPosition: {x: 0, y: 0}
  m_SizeDelta: {x: 1, y: 0.5}
  m_Pivot: {x: 0.5, y: 0.5}
--- !u!1 &1495009920
GameObject:
  m_ObjectHideFlags: 0
  m_PrefabParentObject: {fileID: 1842990678228788, guid: 6884f69ad0adbb441905ff499f5d1ece,
    type: 2}
  m_PrefabInternal: {fileID: 671722722}
  serializedVersion: 5
  m_Component:
  - component: {fileID: 1495009921}
  - component: {fileID: 1495009923}
  - component: {fileID: 1495009922}
  m_Layer: 0
  m_Name: Y_Sphere1
  m_TagString: Untagged
  m_Icon: {fileID: 0}
  m_NavMeshLayer: 0
  m_StaticEditorFlags: 0
  m_IsActive: 1
--- !u!4 &1495009921
Transform:
  m_ObjectHideFlags: 0
  m_PrefabParentObject: {fileID: 4356180001940208, guid: 6884f69ad0adbb441905ff499f5d1ece,
    type: 2}
  m_PrefabInternal: {fileID: 671722722}
  m_GameObject: {fileID: 1495009920}
  m_LocalRotation: {x: 0, y: -0, z: -0, w: 1}
  m_LocalPosition: {x: -0, y: 0.074, z: 0}
  m_LocalScale: {x: 0.23608646, y: 0.23608646, z: 0.23608646}
  m_Children: []
  m_Father: {fileID: 1982003599}
  m_RootOrder: 5
  m_LocalEulerAnglesHint: {x: 0, y: 0, z: 0}
--- !u!23 &1495009922
MeshRenderer:
  m_ObjectHideFlags: 0
  m_PrefabParentObject: {fileID: 23120204125877654, guid: 6884f69ad0adbb441905ff499f5d1ece,
    type: 2}
  m_PrefabInternal: {fileID: 671722722}
  m_GameObject: {fileID: 1495009920}
  m_Enabled: 1
  m_CastShadows: 1
  m_ReceiveShadows: 1
  m_DynamicOccludee: 1
  m_MotionVectors: 1
  m_LightProbeUsage: 1
  m_ReflectionProbeUsage: 1
  m_RenderingLayerMask: 4294967295
  m_Materials:
  - {fileID: 2100000, guid: e7a7c9478d52894418873be6d4bfd5fe, type: 2}
  m_StaticBatchInfo:
    firstSubMesh: 0
    subMeshCount: 0
  m_StaticBatchRoot: {fileID: 0}
  m_ProbeAnchor: {fileID: 0}
  m_LightProbeVolumeOverride: {fileID: 0}
  m_ScaleInLightmap: 1
  m_PreserveUVs: 0
  m_IgnoreNormalsForChartDetection: 0
  m_ImportantGI: 0
  m_StitchLightmapSeams: 0
  m_SelectedEditorRenderState: 3
  m_MinimumChartSize: 4
  m_AutoUVMaxDistance: 0.5
  m_AutoUVMaxAngle: 89
  m_LightmapParameters: {fileID: 0}
  m_SortingLayerID: 0
  m_SortingLayer: 0
  m_SortingOrder: 0
--- !u!33 &1495009923
MeshFilter:
  m_ObjectHideFlags: 0
  m_PrefabParentObject: {fileID: 33119604663167370, guid: 6884f69ad0adbb441905ff499f5d1ece,
    type: 2}
  m_PrefabInternal: {fileID: 671722722}
  m_GameObject: {fileID: 1495009920}
  m_Mesh: {fileID: 4300016, guid: 19e8f0334d30adc46be9a93a73b14e80, type: 3}
--- !u!1 &1514157458
GameObject:
  m_ObjectHideFlags: 0
  m_PrefabParentObject: {fileID: 1113833994144324, guid: 6884f69ad0adbb441905ff499f5d1ece,
    type: 2}
  m_PrefabInternal: {fileID: 671722722}
  serializedVersion: 5
  m_Component:
  - component: {fileID: 1514157459}
  m_Layer: 0
  m_Name: Parts
  m_TagString: Untagged
  m_Icon: {fileID: 0}
  m_NavMeshLayer: 0
  m_StaticEditorFlags: 0
  m_IsActive: 1
--- !u!4 &1514157459
Transform:
  m_ObjectHideFlags: 0
  m_PrefabParentObject: {fileID: 4593201928462162, guid: 6884f69ad0adbb441905ff499f5d1ece,
    type: 2}
  m_PrefabInternal: {fileID: 671722722}
  m_GameObject: {fileID: 1514157458}
  m_LocalRotation: {x: -0, y: -0, z: -0, w: 1}
  m_LocalPosition: {x: 0, y: 0, z: 0}
  m_LocalScale: {x: 1, y: 1, z: 1}
  m_Children:
  - {fileID: 782317128}
  - {fileID: 989537772}
  - {fileID: 1640786820}
  - {fileID: 266160902}
  - {fileID: 1806614023}
  m_Father: {fileID: 671722723}
  m_RootOrder: 1
  m_LocalEulerAnglesHint: {x: 0, y: 0, z: 0}
--- !u!1 &1614074383
GameObject:
  m_ObjectHideFlags: 0
  m_PrefabParentObject: {fileID: 1718182708764060, guid: 6884f69ad0adbb441905ff499f5d1ece,
    type: 2}
  m_PrefabInternal: {fileID: 671722722}
  serializedVersion: 5
  m_Component:
  - component: {fileID: 1614074384}
  - component: {fileID: 1614074386}
  - component: {fileID: 1614074385}
  m_Layer: 0
  m_Name: Y_Sphere2
  m_TagString: Untagged
  m_Icon: {fileID: 0}
  m_NavMeshLayer: 0
  m_StaticEditorFlags: 0
  m_IsActive: 1
--- !u!4 &1614074384
Transform:
  m_ObjectHideFlags: 0
  m_PrefabParentObject: {fileID: 4900260121446758, guid: 6884f69ad0adbb441905ff499f5d1ece,
    type: 2}
  m_PrefabInternal: {fileID: 671722722}
  m_GameObject: {fileID: 1614074383}
  m_LocalRotation: {x: 0, y: -0, z: -0, w: 1}
  m_LocalPosition: {x: -0, y: 0.0972, z: 0}
  m_LocalScale: {x: 0.2, y: 0.2, z: 0.2}
  m_Children: []
  m_Father: {fileID: 1982003599}
  m_RootOrder: 6
  m_LocalEulerAnglesHint: {x: 0, y: 0, z: 0}
--- !u!23 &1614074385
MeshRenderer:
  m_ObjectHideFlags: 0
  m_PrefabParentObject: {fileID: 23179103541490292, guid: 6884f69ad0adbb441905ff499f5d1ece,
    type: 2}
  m_PrefabInternal: {fileID: 671722722}
  m_GameObject: {fileID: 1614074383}
  m_Enabled: 1
  m_CastShadows: 1
  m_ReceiveShadows: 1
  m_DynamicOccludee: 1
  m_MotionVectors: 1
  m_LightProbeUsage: 1
  m_ReflectionProbeUsage: 1
  m_RenderingLayerMask: 4294967295
  m_Materials:
  - {fileID: 2100000, guid: e7a7c9478d52894418873be6d4bfd5fe, type: 2}
  m_StaticBatchInfo:
    firstSubMesh: 0
    subMeshCount: 0
  m_StaticBatchRoot: {fileID: 0}
  m_ProbeAnchor: {fileID: 0}
  m_LightProbeVolumeOverride: {fileID: 0}
  m_ScaleInLightmap: 1
  m_PreserveUVs: 0
  m_IgnoreNormalsForChartDetection: 0
  m_ImportantGI: 0
  m_StitchLightmapSeams: 0
  m_SelectedEditorRenderState: 3
  m_MinimumChartSize: 4
  m_AutoUVMaxDistance: 0.5
  m_AutoUVMaxAngle: 89
  m_LightmapParameters: {fileID: 0}
  m_SortingLayerID: 0
  m_SortingLayer: 0
  m_SortingOrder: 0
--- !u!33 &1614074386
MeshFilter:
  m_ObjectHideFlags: 0
  m_PrefabParentObject: {fileID: 33671709284347652, guid: 6884f69ad0adbb441905ff499f5d1ece,
    type: 2}
  m_PrefabInternal: {fileID: 671722722}
  m_GameObject: {fileID: 1614074383}
  m_Mesh: {fileID: 4300018, guid: 19e8f0334d30adc46be9a93a73b14e80, type: 3}
--- !u!1 &1640786819
GameObject:
  m_ObjectHideFlags: 0
  m_PrefabParentObject: {fileID: 1968809443855386, guid: 6884f69ad0adbb441905ff499f5d1ece,
    type: 2}
  m_PrefabInternal: {fileID: 671722722}
  serializedVersion: 5
  m_Component:
  - component: {fileID: 1640786820}
  - component: {fileID: 1640786822}
  - component: {fileID: 1640786821}
  m_Layer: 0
  m_Name: Controller_MenuButton
  m_TagString: Untagged
  m_Icon: {fileID: 0}
  m_NavMeshLayer: 0
  m_StaticEditorFlags: 0
  m_IsActive: 1
--- !u!4 &1640786820
Transform:
  m_ObjectHideFlags: 0
  m_PrefabParentObject: {fileID: 4302504115011164, guid: 6884f69ad0adbb441905ff499f5d1ece,
    type: 2}
  m_PrefabInternal: {fileID: 671722722}
  m_GameObject: {fileID: 1640786819}
  m_LocalRotation: {x: 0, y: -0, z: -0, w: 1}
  m_LocalPosition: {x: -0.000001679097, y: -0.013238956, z: -0.023412386}
  m_LocalScale: {x: 1, y: 1, z: 1}
  m_Children: []
  m_Father: {fileID: 1514157459}
  m_RootOrder: 2
  m_LocalEulerAnglesHint: {x: 0, y: 0, z: 0}
--- !u!23 &1640786821
MeshRenderer:
  m_ObjectHideFlags: 0
  m_PrefabParentObject: {fileID: 23449633464991100, guid: 6884f69ad0adbb441905ff499f5d1ece,
    type: 2}
  m_PrefabInternal: {fileID: 671722722}
  m_GameObject: {fileID: 1640786819}
  m_Enabled: 1
  m_CastShadows: 1
  m_ReceiveShadows: 1
  m_DynamicOccludee: 1
  m_MotionVectors: 1
  m_LightProbeUsage: 1
  m_ReflectionProbeUsage: 1
  m_RenderingLayerMask: 4294967295
  m_Materials:
  - {fileID: 2100000, guid: d89a73bc826d4d248b1cde764731779a, type: 2}
  m_StaticBatchInfo:
    firstSubMesh: 0
    subMeshCount: 0
  m_StaticBatchRoot: {fileID: 0}
  m_ProbeAnchor: {fileID: 0}
  m_LightProbeVolumeOverride: {fileID: 0}
  m_ScaleInLightmap: 1
  m_PreserveUVs: 0
  m_IgnoreNormalsForChartDetection: 0
  m_ImportantGI: 0
  m_StitchLightmapSeams: 0
  m_SelectedEditorRenderState: 3
  m_MinimumChartSize: 4
  m_AutoUVMaxDistance: 0.5
  m_AutoUVMaxAngle: 89
  m_LightmapParameters: {fileID: 0}
  m_SortingLayerID: 0
  m_SortingLayer: 0
  m_SortingOrder: 0
--- !u!33 &1640786822
MeshFilter:
  m_ObjectHideFlags: 0
  m_PrefabParentObject: {fileID: 33534818932160554, guid: 6884f69ad0adbb441905ff499f5d1ece,
    type: 2}
  m_PrefabInternal: {fileID: 671722722}
  m_GameObject: {fileID: 1640786819}
  m_Mesh: {fileID: 4300002, guid: 5b285b3c693725c4995ec9b2a3eb1496, type: 3}
--- !u!1 &1681630540
GameObject:
  m_ObjectHideFlags: 0
  m_PrefabParentObject: {fileID: 1608384369602136, guid: 6884f69ad0adbb441905ff499f5d1ece,
    type: 2}
  m_PrefabInternal: {fileID: 671722722}
  serializedVersion: 5
  m_Component:
  - component: {fileID: 1681630541}
  - component: {fileID: 1681630543}
  - component: {fileID: 1681630542}
  m_Layer: 0
  m_Name: Y_Sphere5
  m_TagString: Untagged
  m_Icon: {fileID: 0}
  m_NavMeshLayer: 0
  m_StaticEditorFlags: 0
  m_IsActive: 1
--- !u!4 &1681630541
Transform:
  m_ObjectHideFlags: 0
  m_PrefabParentObject: {fileID: 4533459495856400, guid: 6884f69ad0adbb441905ff499f5d1ece,
    type: 2}
  m_PrefabInternal: {fileID: 671722722}
  m_GameObject: {fileID: 1681630540}
  m_LocalRotation: {x: -0, y: -0, z: -0, w: 1}
  m_LocalPosition: {x: 0, y: 0.15619999, z: 0}
  m_LocalScale: {x: 0.60089886, y: 0.60089886, z: 0.60089886}
  m_Children: []
  m_Father: {fileID: 1982003599}
  m_RootOrder: 9
  m_LocalEulerAnglesHint: {x: 0, y: 0, z: 0}
--- !u!23 &1681630542
MeshRenderer:
  m_ObjectHideFlags: 0
  m_PrefabParentObject: {fileID: 23722500869546092, guid: 6884f69ad0adbb441905ff499f5d1ece,
    type: 2}
  m_PrefabInternal: {fileID: 671722722}
  m_GameObject: {fileID: 1681630540}
  m_Enabled: 1
  m_CastShadows: 1
  m_ReceiveShadows: 1
  m_DynamicOccludee: 1
  m_MotionVectors: 1
  m_LightProbeUsage: 1
  m_ReflectionProbeUsage: 1
  m_RenderingLayerMask: 4294967295
  m_Materials:
  - {fileID: 2100000, guid: e7a7c9478d52894418873be6d4bfd5fe, type: 2}
  m_StaticBatchInfo:
    firstSubMesh: 0
    subMeshCount: 0
  m_StaticBatchRoot: {fileID: 0}
  m_ProbeAnchor: {fileID: 0}
  m_LightProbeVolumeOverride: {fileID: 0}
  m_ScaleInLightmap: 1
  m_PreserveUVs: 0
  m_IgnoreNormalsForChartDetection: 0
  m_ImportantGI: 0
  m_StitchLightmapSeams: 0
  m_SelectedEditorRenderState: 3
  m_MinimumChartSize: 4
  m_AutoUVMaxDistance: 0.5
  m_AutoUVMaxAngle: 89
  m_LightmapParameters: {fileID: 0}
  m_SortingLayerID: 0
  m_SortingLayer: 0
  m_SortingOrder: 0
--- !u!33 &1681630543
MeshFilter:
  m_ObjectHideFlags: 0
  m_PrefabParentObject: {fileID: 33044256498324094, guid: 6884f69ad0adbb441905ff499f5d1ece,
    type: 2}
  m_PrefabInternal: {fileID: 671722722}
  m_GameObject: {fileID: 1681630540}
  m_Mesh: {fileID: 4300036, guid: 19e8f0334d30adc46be9a93a73b14e80, type: 3}
--- !u!1 &1731829234
GameObject:
  m_ObjectHideFlags: 0
  m_PrefabParentObject: {fileID: 0}
  m_PrefabInternal: {fileID: 0}
  serializedVersion: 5
  m_Component:
  - component: {fileID: 1731829235}
  m_Layer: 0
  m_Name: '[RENDERING]'
  m_TagString: Untagged
  m_Icon: {fileID: 0}
  m_NavMeshLayer: 0
  m_StaticEditorFlags: 0
  m_IsActive: 1
--- !u!4 &1731829235
Transform:
  m_ObjectHideFlags: 0
  m_PrefabParentObject: {fileID: 0}
  m_PrefabInternal: {fileID: 0}
  m_GameObject: {fileID: 1731829234}
  m_LocalRotation: {x: 0, y: 0, z: 0, w: 1}
  m_LocalPosition: {x: 0, y: 0, z: 0}
  m_LocalScale: {x: 1, y: 1, z: 1}
  m_Children:
  - {fileID: 1468009404}
  - {fileID: 1462129512}
  - {fileID: 46576055}
  m_Father: {fileID: 0}
  m_RootOrder: 1
  m_LocalEulerAnglesHint: {x: 0, y: 0, z: 0}
--- !u!1 &1806614022
GameObject:
  m_ObjectHideFlags: 0
  m_PrefabParentObject: {fileID: 1277092664057374, guid: 6884f69ad0adbb441905ff499f5d1ece,
    type: 2}
  m_PrefabInternal: {fileID: 671722722}
  serializedVersion: 5
  m_Component:
  - component: {fileID: 1806614023}
  - component: {fileID: 1806614025}
  - component: {fileID: 1806614024}
  m_Layer: 0
  m_Name: Controller_Trigger
  m_TagString: Untagged
  m_Icon: {fileID: 0}
  m_NavMeshLayer: 0
  m_StaticEditorFlags: 0
  m_IsActive: 1
--- !u!4 &1806614023
Transform:
  m_ObjectHideFlags: 0
  m_PrefabParentObject: {fileID: 4787372622637428, guid: 6884f69ad0adbb441905ff499f5d1ece,
    type: 2}
  m_PrefabInternal: {fileID: 671722722}
  m_GameObject: {fileID: 1806614022}
  m_LocalRotation: {x: 0, y: -0, z: -0, w: 1}
  m_LocalPosition: {x: -0.000001679097, y: -0.021596802, z: 0.020278007}
  m_LocalScale: {x: 1, y: 1, z: 1}
  m_Children: []
  m_Father: {fileID: 1514157459}
  m_RootOrder: 4
  m_LocalEulerAnglesHint: {x: 0, y: 0, z: 0}
--- !u!23 &1806614024
MeshRenderer:
  m_ObjectHideFlags: 0
  m_PrefabParentObject: {fileID: 23913516634038290, guid: 6884f69ad0adbb441905ff499f5d1ece,
    type: 2}
  m_PrefabInternal: {fileID: 671722722}
  m_GameObject: {fileID: 1806614022}
  m_Enabled: 1
  m_CastShadows: 1
  m_ReceiveShadows: 1
  m_DynamicOccludee: 1
  m_MotionVectors: 1
  m_LightProbeUsage: 1
  m_ReflectionProbeUsage: 1
  m_RenderingLayerMask: 4294967295
  m_Materials:
  - {fileID: 2100000, guid: d89a73bc826d4d248b1cde764731779a, type: 2}
  m_StaticBatchInfo:
    firstSubMesh: 0
    subMeshCount: 0
  m_StaticBatchRoot: {fileID: 0}
  m_ProbeAnchor: {fileID: 0}
  m_LightProbeVolumeOverride: {fileID: 0}
  m_ScaleInLightmap: 1
  m_PreserveUVs: 0
  m_IgnoreNormalsForChartDetection: 0
  m_ImportantGI: 0
  m_StitchLightmapSeams: 0
  m_SelectedEditorRenderState: 3
  m_MinimumChartSize: 4
  m_AutoUVMaxDistance: 0.5
  m_AutoUVMaxAngle: 89
  m_LightmapParameters: {fileID: 0}
  m_SortingLayerID: 0
  m_SortingLayer: 0
  m_SortingOrder: 0
--- !u!33 &1806614025
MeshFilter:
  m_ObjectHideFlags: 0
  m_PrefabParentObject: {fileID: 33276218514183802, guid: 6884f69ad0adbb441905ff499f5d1ece,
    type: 2}
  m_PrefabInternal: {fileID: 671722722}
  m_GameObject: {fileID: 1806614022}
  m_Mesh: {fileID: 4300004, guid: 5b285b3c693725c4995ec9b2a3eb1496, type: 3}
--- !u!1 &1877675825
GameObject:
  m_ObjectHideFlags: 0
  m_PrefabParentObject: {fileID: 1203365348333352, guid: 6884f69ad0adbb441905ff499f5d1ece,
    type: 2}
  m_PrefabInternal: {fileID: 671722722}
  serializedVersion: 5
  m_Component:
  - component: {fileID: 1877675826}
  - component: {fileID: 1877675828}
  - component: {fileID: 1877675827}
  m_Layer: 0
  m_Name: Z_Sphere3
  m_TagString: Untagged
  m_Icon: {fileID: 0}
  m_NavMeshLayer: 0
  m_StaticEditorFlags: 0
  m_IsActive: 1
--- !u!4 &1877675826
Transform:
  m_ObjectHideFlags: 0
  m_PrefabParentObject: {fileID: 4111254525195114, guid: 6884f69ad0adbb441905ff499f5d1ece,
    type: 2}
  m_PrefabInternal: {fileID: 671722722}
  m_GameObject: {fileID: 1877675825}
  m_LocalRotation: {x: 0, y: -0, z: -0, w: 1}
  m_LocalPosition: {x: -0, y: 0, z: 0.1522}
  m_LocalScale: {x: 0.15, y: 0.15, z: 0.15}
  m_Children: []
  m_Father: {fileID: 1982003599}
  m_RootOrder: 12
  m_LocalEulerAnglesHint: {x: 0, y: 0, z: 0}
--- !u!23 &1877675827
MeshRenderer:
  m_ObjectHideFlags: 0
  m_PrefabParentObject: {fileID: 23115673530992378, guid: 6884f69ad0adbb441905ff499f5d1ece,
    type: 2}
  m_PrefabInternal: {fileID: 671722722}
  m_GameObject: {fileID: 1877675825}
  m_Enabled: 1
  m_CastShadows: 1
  m_ReceiveShadows: 1
  m_DynamicOccludee: 1
  m_MotionVectors: 1
  m_LightProbeUsage: 1
  m_ReflectionProbeUsage: 1
  m_RenderingLayerMask: 4294967295
  m_Materials:
  - {fileID: 2100000, guid: dce284ccd24f4ae4ab1bd9256da4a4bd, type: 2}
  m_StaticBatchInfo:
    firstSubMesh: 0
    subMeshCount: 0
  m_StaticBatchRoot: {fileID: 0}
  m_ProbeAnchor: {fileID: 0}
  m_LightProbeVolumeOverride: {fileID: 0}
  m_ScaleInLightmap: 1
  m_PreserveUVs: 0
  m_IgnoreNormalsForChartDetection: 0
  m_ImportantGI: 0
  m_StitchLightmapSeams: 0
  m_SelectedEditorRenderState: 3
  m_MinimumChartSize: 4
  m_AutoUVMaxDistance: 0.5
  m_AutoUVMaxAngle: 89
  m_LightmapParameters: {fileID: 0}
  m_SortingLayerID: 0
  m_SortingLayer: 0
  m_SortingOrder: 0
--- !u!33 &1877675828
MeshFilter:
  m_ObjectHideFlags: 0
  m_PrefabParentObject: {fileID: 33844991081518484, guid: 6884f69ad0adbb441905ff499f5d1ece,
    type: 2}
  m_PrefabInternal: {fileID: 671722722}
  m_GameObject: {fileID: 1877675825}
  m_Mesh: {fileID: 4300010, guid: 19e8f0334d30adc46be9a93a73b14e80, type: 3}
--- !u!1 &1889385888
GameObject:
  m_ObjectHideFlags: 0
  m_PrefabParentObject: {fileID: 0}
  m_PrefabInternal: {fileID: 0}
  serializedVersion: 5
  m_Component:
  - component: {fileID: 1889385889}
  - component: {fileID: 1889385891}
  - component: {fileID: 1889385890}
  - component: {fileID: 1889385892}
  m_Layer: 0
  m_Name: Image Capture Example
  m_TagString: Untagged
  m_Icon: {fileID: 0}
  m_NavMeshLayer: 0
  m_StaticEditorFlags: 0
  m_IsActive: 1
--- !u!4 &1889385889
Transform:
  m_ObjectHideFlags: 0
  m_PrefabParentObject: {fileID: 0}
  m_PrefabInternal: {fileID: 0}
  m_GameObject: {fileID: 1889385888}
  m_LocalRotation: {x: 0, y: 0, z: 0, w: 1}
  m_LocalPosition: {x: 0, y: 0, z: 0}
  m_LocalScale: {x: 1, y: 1, z: 1}
  m_Children: []
  m_Father: {fileID: 234904009}
  m_RootOrder: 0
  m_LocalEulerAnglesHint: {x: 0, y: 0, z: 0}
--- !u!114 &1889385890
MonoBehaviour:
  m_ObjectHideFlags: 0
  m_PrefabParentObject: {fileID: 0}
  m_PrefabInternal: {fileID: 0}
  m_GameObject: {fileID: 1889385888}
  m_Enabled: 1
  m_EditorHideFlags: 0
  m_Script: {fileID: 11500000, guid: 189c6201a6e5e4730b6cc03d2fd65df4, type: 3}
  m_Name: 
  m_EditorClassIdentifier: 
  _previewObject: {fileID: 2081483295}
--- !u!114 &1889385891
MonoBehaviour:
  m_ObjectHideFlags: 0
  m_PrefabParentObject: {fileID: 0}
  m_PrefabInternal: {fileID: 0}
  m_GameObject: {fileID: 1889385888}
  m_Enabled: 1
  m_EditorHideFlags: 0
  m_Script: {fileID: 11500000, guid: 3c6127eaf2b7347c18a2d4784168cbfc, type: 3}
  m_Name: 
  m_EditorClassIdentifier: 
  _controllerConnectionHandler: {fileID: 671722724}
  OnImageReceivedEvent:
    m_PersistentCalls:
      m_Calls:
      - m_Target: {fileID: 1889385890}
        m_MethodName: OnImageCaptured
        m_Mode: 0
        m_Arguments:
          m_ObjectArgument: {fileID: 0}
          m_ObjectArgumentAssemblyTypeName: UnityEngine.Object, UnityEngine
          m_IntArgument: 0
          m_FloatArgument: 0
          m_StringArgument: 
          m_BoolArgument: 0
        m_CallState: 2
    m_TypeName: MagicLeap.ImageCaptureExample+ImageCaptureEvent, Assembly-CSharp,
      Version=0.0.0.0, Culture=neutral, PublicKeyToken=null
--- !u!114 &1889385892
MonoBehaviour:
  m_ObjectHideFlags: 0
  m_PrefabParentObject: {fileID: 0}
  m_PrefabInternal: {fileID: 0}
  m_GameObject: {fileID: 1889385888}
  m_Enabled: 1
  m_EditorHideFlags: 0
  m_Script: {fileID: 11500000, guid: c890bdf354698ba429472b626542bcc7, type: 3}
  m_Name: 
  m_EditorClassIdentifier: 
  _privileges: 1a000000
--- !u!1 &1907081796
GameObject:
  m_ObjectHideFlags: 0
  m_PrefabParentObject: {fileID: 1941298243504756, guid: 6884f69ad0adbb441905ff499f5d1ece,
    type: 2}
  m_PrefabInternal: {fileID: 671722722}
  serializedVersion: 5
  m_Component:
  - component: {fileID: 1907081797}
  - component: {fileID: 1907081799}
  - component: {fileID: 1907081798}
  m_Layer: 0
  m_Name: Z_Sphere2
  m_TagString: Untagged
  m_Icon: {fileID: 0}
  m_NavMeshLayer: 0
  m_StaticEditorFlags: 0
  m_IsActive: 1
--- !u!4 &1907081797
Transform:
  m_ObjectHideFlags: 0
  m_PrefabParentObject: {fileID: 4396984665081090, guid: 6884f69ad0adbb441905ff499f5d1ece,
    type: 2}
  m_PrefabInternal: {fileID: 671722722}
  m_GameObject: {fileID: 1907081796}
  m_LocalRotation: {x: 0, y: -0, z: -0, w: 1}
  m_LocalPosition: {x: -0, y: 0, z: 0.1245}
  m_LocalScale: {x: 0.2, y: 0.2, z: 0.2}
  m_Children: []
  m_Father: {fileID: 1982003599}
  m_RootOrder: 11
  m_LocalEulerAnglesHint: {x: 0, y: 0, z: 0}
--- !u!23 &1907081798
MeshRenderer:
  m_ObjectHideFlags: 0
  m_PrefabParentObject: {fileID: 23997823054652162, guid: 6884f69ad0adbb441905ff499f5d1ece,
    type: 2}
  m_PrefabInternal: {fileID: 671722722}
  m_GameObject: {fileID: 1907081796}
  m_Enabled: 1
  m_CastShadows: 1
  m_ReceiveShadows: 1
  m_DynamicOccludee: 1
  m_MotionVectors: 1
  m_LightProbeUsage: 1
  m_ReflectionProbeUsage: 1
  m_RenderingLayerMask: 4294967295
  m_Materials:
  - {fileID: 2100000, guid: dce284ccd24f4ae4ab1bd9256da4a4bd, type: 2}
  m_StaticBatchInfo:
    firstSubMesh: 0
    subMeshCount: 0
  m_StaticBatchRoot: {fileID: 0}
  m_ProbeAnchor: {fileID: 0}
  m_LightProbeVolumeOverride: {fileID: 0}
  m_ScaleInLightmap: 1
  m_PreserveUVs: 0
  m_IgnoreNormalsForChartDetection: 0
  m_ImportantGI: 0
  m_StitchLightmapSeams: 0
  m_SelectedEditorRenderState: 3
  m_MinimumChartSize: 4
  m_AutoUVMaxDistance: 0.5
  m_AutoUVMaxAngle: 89
  m_LightmapParameters: {fileID: 0}
  m_SortingLayerID: 0
  m_SortingLayer: 0
  m_SortingOrder: 0
--- !u!33 &1907081799
MeshFilter:
  m_ObjectHideFlags: 0
  m_PrefabParentObject: {fileID: 33654918285394216, guid: 6884f69ad0adbb441905ff499f5d1ece,
    type: 2}
  m_PrefabInternal: {fileID: 671722722}
  m_GameObject: {fileID: 1907081796}
  m_Mesh: {fileID: 4300008, guid: 19e8f0334d30adc46be9a93a73b14e80, type: 3}
--- !u!1 &1982003598
GameObject:
  m_ObjectHideFlags: 0
  m_PrefabParentObject: {fileID: 1174898462638906, guid: 6884f69ad0adbb441905ff499f5d1ece,
    type: 2}
  m_PrefabInternal: {fileID: 671722722}
  serializedVersion: 5
  m_Component:
  - component: {fileID: 1982003599}
  m_Layer: 0
  m_Name: Axis
  m_TagString: Untagged
  m_Icon: {fileID: 0}
  m_NavMeshLayer: 0
  m_StaticEditorFlags: 0
  m_IsActive: 1
--- !u!4 &1982003599
Transform:
  m_ObjectHideFlags: 0
  m_PrefabParentObject: {fileID: 4070557754216122, guid: 6884f69ad0adbb441905ff499f5d1ece,
    type: 2}
  m_PrefabInternal: {fileID: 671722722}
  m_GameObject: {fileID: 1982003598}
  m_LocalRotation: {x: -0, y: -0, z: -0, w: 1}
  m_LocalPosition: {x: 0, y: 0, z: 0}
  m_LocalScale: {x: 0.35, y: 0.35, z: 0.35}
  m_Children:
  - {fileID: 2110736152}
  - {fileID: 990554885}
  - {fileID: 50067922}
  - {fileID: 1150943208}
  - {fileID: 2143762587}
  - {fileID: 1495009921}
  - {fileID: 1614074384}
  - {fileID: 2080964025}
  - {fileID: 1394519166}
  - {fileID: 1681630541}
  - {fileID: 832938151}
  - {fileID: 1907081797}
  - {fileID: 1877675826}
  - {fileID: 176941063}
  - {fileID: 144251622}
  m_Father: {fileID: 671722723}
  m_RootOrder: 0
  m_LocalEulerAnglesHint: {x: 0, y: 0, z: 0}
--- !u!1 &2080964024
GameObject:
  m_ObjectHideFlags: 0
  m_PrefabParentObject: {fileID: 1910150124526350, guid: 6884f69ad0adbb441905ff499f5d1ece,
    type: 2}
  m_PrefabInternal: {fileID: 671722722}
  serializedVersion: 5
  m_Component:
  - component: {fileID: 2080964025}
  - component: {fileID: 2080964027}
  - component: {fileID: 2080964026}
  m_Layer: 0
  m_Name: Y_Sphere3
  m_TagString: Untagged
  m_Icon: {fileID: 0}
  m_NavMeshLayer: 0
  m_StaticEditorFlags: 0
  m_IsActive: 1
--- !u!4 &2080964025
Transform:
  m_ObjectHideFlags: 0
  m_PrefabParentObject: {fileID: 4003540143226676, guid: 6884f69ad0adbb441905ff499f5d1ece,
    type: 2}
  m_PrefabInternal: {fileID: 671722722}
  m_GameObject: {fileID: 2080964024}
  m_LocalRotation: {x: 0, y: -0, z: -0, w: 1}
  m_LocalPosition: {x: -0, y: 0.1188, z: 0}
  m_LocalScale: {x: 0.15, y: 0.15, z: 0.15}
  m_Children: []
  m_Father: {fileID: 1982003599}
  m_RootOrder: 7
  m_LocalEulerAnglesHint: {x: 0, y: 0, z: 0}
--- !u!23 &2080964026
MeshRenderer:
  m_ObjectHideFlags: 0
  m_PrefabParentObject: {fileID: 23637049823106342, guid: 6884f69ad0adbb441905ff499f5d1ece,
    type: 2}
  m_PrefabInternal: {fileID: 671722722}
  m_GameObject: {fileID: 2080964024}
  m_Enabled: 1
  m_CastShadows: 1
  m_ReceiveShadows: 1
  m_DynamicOccludee: 1
  m_MotionVectors: 1
  m_LightProbeUsage: 1
  m_ReflectionProbeUsage: 1
  m_RenderingLayerMask: 4294967295
  m_Materials:
  - {fileID: 2100000, guid: e7a7c9478d52894418873be6d4bfd5fe, type: 2}
  m_StaticBatchInfo:
    firstSubMesh: 0
    subMeshCount: 0
  m_StaticBatchRoot: {fileID: 0}
  m_ProbeAnchor: {fileID: 0}
  m_LightProbeVolumeOverride: {fileID: 0}
  m_ScaleInLightmap: 1
  m_PreserveUVs: 0
  m_IgnoreNormalsForChartDetection: 0
  m_ImportantGI: 0
  m_StitchLightmapSeams: 0
  m_SelectedEditorRenderState: 3
  m_MinimumChartSize: 4
  m_AutoUVMaxDistance: 0.5
  m_AutoUVMaxAngle: 89
  m_LightmapParameters: {fileID: 0}
  m_SortingLayerID: 0
  m_SortingLayer: 0
  m_SortingOrder: 0
--- !u!33 &2080964027
MeshFilter:
  m_ObjectHideFlags: 0
  m_PrefabParentObject: {fileID: 33841429852231116, guid: 6884f69ad0adbb441905ff499f5d1ece,
    type: 2}
  m_PrefabInternal: {fileID: 671722722}
  m_GameObject: {fileID: 2080964024}
  m_Mesh: {fileID: 4300004, guid: 19e8f0334d30adc46be9a93a73b14e80, type: 3}
--- !u!1 &2081483295
GameObject:
  m_ObjectHideFlags: 0
  m_PrefabParentObject: {fileID: 0}
  m_PrefabInternal: {fileID: 0}
  serializedVersion: 5
  m_Component:
  - component: {fileID: 2081483296}
  - component: {fileID: 2081483299}
  - component: {fileID: 2081483298}
  - component: {fileID: 2081483297}
  m_Layer: 5
  m_Name: Image Preview
  m_TagString: Untagged
  m_Icon: {fileID: 0}
  m_NavMeshLayer: 0
  m_StaticEditorFlags: 0
  m_IsActive: 1
--- !u!224 &2081483296
RectTransform:
  m_ObjectHideFlags: 0
  m_PrefabParentObject: {fileID: 0}
  m_PrefabInternal: {fileID: 0}
  m_GameObject: {fileID: 2081483295}
  m_LocalRotation: {x: 0, y: 0, z: 0, w: 1}
  m_LocalPosition: {x: 0, y: 0, z: 0}
  m_LocalScale: {x: 0.4, y: 0.2, z: 1}
  m_Children: []
  m_Father: {fileID: 1468009404}
  m_RootOrder: 0
  m_LocalEulerAnglesHint: {x: 0, y: 0, z: 0}
  m_AnchorMin: {x: 0.5, y: 0.5}
  m_AnchorMax: {x: 0.5, y: 0.5}
  m_AnchoredPosition: {x: 0, y: 0}
  m_SizeDelta: {x: 100, y: 100}
  m_Pivot: {x: 0.5, y: 0.5}
--- !u!64 &2081483297
MeshCollider:
  m_ObjectHideFlags: 0
  m_PrefabParentObject: {fileID: 0}
  m_PrefabInternal: {fileID: 0}
  m_GameObject: {fileID: 2081483295}
  m_Material: {fileID: 0}
  m_IsTrigger: 0
  m_Enabled: 1
  serializedVersion: 3
  m_Convex: 0
  m_CookingOptions: 14
  m_SkinWidth: 0.01
  m_Mesh: {fileID: 10210, guid: 0000000000000000e000000000000000, type: 0}
--- !u!23 &2081483298
MeshRenderer:
  m_ObjectHideFlags: 0
  m_PrefabParentObject: {fileID: 0}
  m_PrefabInternal: {fileID: 0}
  m_GameObject: {fileID: 2081483295}
  m_Enabled: 1
  m_CastShadows: 1
  m_ReceiveShadows: 1
  m_DynamicOccludee: 1
  m_MotionVectors: 1
  m_LightProbeUsage: 1
  m_ReflectionProbeUsage: 1
  m_RenderingLayerMask: 4294967295
  m_Materials:
  - {fileID: 10754, guid: 0000000000000000f000000000000000, type: 0}
  m_StaticBatchInfo:
    firstSubMesh: 0
    subMeshCount: 0
  m_StaticBatchRoot: {fileID: 0}
  m_ProbeAnchor: {fileID: 0}
  m_LightProbeVolumeOverride: {fileID: 0}
  m_ScaleInLightmap: 1
  m_PreserveUVs: 0
  m_IgnoreNormalsForChartDetection: 0
  m_ImportantGI: 0
  m_StitchLightmapSeams: 0
  m_SelectedEditorRenderState: 3
  m_MinimumChartSize: 4
  m_AutoUVMaxDistance: 0.5
  m_AutoUVMaxAngle: 89
  m_LightmapParameters: {fileID: 0}
  m_SortingLayerID: 0
  m_SortingLayer: 0
  m_SortingOrder: 0
--- !u!33 &2081483299
MeshFilter:
  m_ObjectHideFlags: 0
  m_PrefabParentObject: {fileID: 0}
  m_PrefabInternal: {fileID: 0}
  m_GameObject: {fileID: 2081483295}
  m_Mesh: {fileID: 10210, guid: 0000000000000000e000000000000000, type: 0}
--- !u!1 &2110736151
GameObject:
  m_ObjectHideFlags: 0
  m_PrefabParentObject: {fileID: 1941900759348340, guid: 6884f69ad0adbb441905ff499f5d1ece,
    type: 2}
  m_PrefabInternal: {fileID: 671722722}
  serializedVersion: 5
  m_Component:
  - component: {fileID: 2110736152}
  - component: {fileID: 2110736154}
  - component: {fileID: 2110736153}
  m_Layer: 0
  m_Name: X_Sphere1
  m_TagString: Untagged
  m_Icon: {fileID: 0}
  m_NavMeshLayer: 0
  m_StaticEditorFlags: 0
  m_IsActive: 1
--- !u!4 &2110736152
Transform:
  m_ObjectHideFlags: 0
  m_PrefabParentObject: {fileID: 4158116861159344, guid: 6884f69ad0adbb441905ff499f5d1ece,
    type: 2}
  m_PrefabInternal: {fileID: 671722722}
  m_GameObject: {fileID: 2110736151}
  m_LocalRotation: {x: 0, y: -0, z: -0, w: 1}
  m_LocalPosition: {x: -0.100000076, y: 0, z: 0}
  m_LocalScale: {x: 0.2360864, y: 0.2360864, z: 0.2360864}
  m_Children: []
  m_Father: {fileID: 1982003599}
  m_RootOrder: 0
  m_LocalEulerAnglesHint: {x: 0, y: 0, z: 0}
--- !u!23 &2110736153
MeshRenderer:
  m_ObjectHideFlags: 0
  m_PrefabParentObject: {fileID: 23739822771530122, guid: 6884f69ad0adbb441905ff499f5d1ece,
    type: 2}
  m_PrefabInternal: {fileID: 671722722}
  m_GameObject: {fileID: 2110736151}
  m_Enabled: 1
  m_CastShadows: 1
  m_ReceiveShadows: 1
  m_DynamicOccludee: 1
  m_MotionVectors: 1
  m_LightProbeUsage: 1
  m_ReflectionProbeUsage: 1
  m_RenderingLayerMask: 4294967295
  m_Materials:
  - {fileID: 2100000, guid: 5808511577e4da7488e7fc2fcfb7d238, type: 2}
  m_StaticBatchInfo:
    firstSubMesh: 0
    subMeshCount: 0
  m_StaticBatchRoot: {fileID: 0}
  m_ProbeAnchor: {fileID: 0}
  m_LightProbeVolumeOverride: {fileID: 0}
  m_ScaleInLightmap: 1
  m_PreserveUVs: 0
  m_IgnoreNormalsForChartDetection: 0
  m_ImportantGI: 0
  m_StitchLightmapSeams: 0
  m_SelectedEditorRenderState: 3
  m_MinimumChartSize: 4
  m_AutoUVMaxDistance: 0.5
  m_AutoUVMaxAngle: 89
  m_LightmapParameters: {fileID: 0}
  m_SortingLayerID: 0
  m_SortingLayer: 0
  m_SortingOrder: 0
--- !u!33 &2110736154
MeshFilter:
  m_ObjectHideFlags: 0
  m_PrefabParentObject: {fileID: 33542970894612774, guid: 6884f69ad0adbb441905ff499f5d1ece,
    type: 2}
  m_PrefabInternal: {fileID: 671722722}
  m_GameObject: {fileID: 2110736151}
  m_Mesh: {fileID: 4300006, guid: 19e8f0334d30adc46be9a93a73b14e80, type: 3}
--- !u!1 &2143762586
GameObject:
  m_ObjectHideFlags: 0
  m_PrefabParentObject: {fileID: 1109091588651586, guid: 6884f69ad0adbb441905ff499f5d1ece,
    type: 2}
  m_PrefabInternal: {fileID: 671722722}
  serializedVersion: 5
  m_Component:
  - component: {fileID: 2143762587}
  - component: {fileID: 2143762589}
  - component: {fileID: 2143762588}
  m_Layer: 0
  m_Name: X_Sphere5
  m_TagString: Untagged
  m_Icon: {fileID: 0}
  m_NavMeshLayer: 0
  m_StaticEditorFlags: 0
  m_IsActive: 1
--- !u!4 &2143762587
Transform:
  m_ObjectHideFlags: 0
  m_PrefabParentObject: {fileID: 4125662156794656, guid: 6884f69ad0adbb441905ff499f5d1ece,
    type: 2}
  m_PrefabInternal: {fileID: 671722722}
  m_GameObject: {fileID: 2143762586}
  m_LocalRotation: {x: -0, y: -0, z: -0, w: 1}
  m_LocalPosition: {x: -0.19999999, y: 0, z: 0}
  m_LocalScale: {x: 0.60089886, y: 0.60089886, z: 0.60089886}
  m_Children: []
  m_Father: {fileID: 1982003599}
  m_RootOrder: 4
  m_LocalEulerAnglesHint: {x: 0, y: 0, z: 0}
--- !u!23 &2143762588
MeshRenderer:
  m_ObjectHideFlags: 0
  m_PrefabParentObject: {fileID: 23400701852860478, guid: 6884f69ad0adbb441905ff499f5d1ece,
    type: 2}
  m_PrefabInternal: {fileID: 671722722}
  m_GameObject: {fileID: 2143762586}
  m_Enabled: 1
  m_CastShadows: 1
  m_ReceiveShadows: 1
  m_DynamicOccludee: 1
  m_MotionVectors: 1
  m_LightProbeUsage: 1
  m_ReflectionProbeUsage: 1
  m_RenderingLayerMask: 4294967295
  m_Materials:
  - {fileID: 2100000, guid: 5808511577e4da7488e7fc2fcfb7d238, type: 2}
  m_StaticBatchInfo:
    firstSubMesh: 0
    subMeshCount: 0
  m_StaticBatchRoot: {fileID: 0}
  m_ProbeAnchor: {fileID: 0}
  m_LightProbeVolumeOverride: {fileID: 0}
  m_ScaleInLightmap: 1
  m_PreserveUVs: 0
  m_IgnoreNormalsForChartDetection: 0
  m_ImportantGI: 0
  m_StitchLightmapSeams: 0
  m_SelectedEditorRenderState: 3
  m_MinimumChartSize: 4
  m_AutoUVMaxDistance: 0.5
  m_AutoUVMaxAngle: 89
  m_LightmapParameters: {fileID: 0}
  m_SortingLayerID: 0
  m_SortingLayer: 0
  m_SortingOrder: 0
--- !u!33 &2143762589
MeshFilter:
  m_ObjectHideFlags: 0
  m_PrefabParentObject: {fileID: 33865238062155040, guid: 6884f69ad0adbb441905ff499f5d1ece,
    type: 2}
  m_PrefabInternal: {fileID: 671722722}
  m_GameObject: {fileID: 2143762586}
  m_Mesh: {fileID: 4300032, guid: 19e8f0334d30adc46be9a93a73b14e80, type: 3}
